Results/28nm/vcs_post_par/DVEfiles/dve_gui.log
Chronologic VCS simulator copyright 1991-2017
Contains Synopsys proprietary information.
Compiler version M-2017.03-SP1_Full64; Runtime version M-2017.03-SP1_Full64;  Nov 17 16:09 2019
VCD+ Writer M-2017.03-SP1_Full64 Copyright (c) 1991-2017 by Synopsys Inc.
The file '/home/student/jkw0002/CPE527L/PROJECT/28nm/vcs_post_par/inter.vpd' was opened successfully.
Chronologic VCS simulator copyright 1991-2017
Contains Synopsys proprietary information.
Compiler version M-2017.03-SP1_Full64; Runtime version M-2017.03-SP1_Full64;  Nov 17 16:09 2019
VCS Build Date = May 23 2017 20:49:19
Start run at Nov 17 16:09 2019
VCD+ Writer M-2017.03-SP1_Full64 Copyright (c) 1991-2017 by Synopsys Inc.
The file '/home/student/jkw0002/CPE527L/PROJECT/28nm/vcs_post_par/inter.vpd' was opened successfully.
time=    0 ns, clk=0, reset=1, memdata=xxxxxxxx, memread=x, memwrite=x, addr=xxxxxxxx, writedata=xxxxxxxx, pcout=xxxxxxxx, regwrite=x, wrAddr=xxxxx, rdAddr1=xxxxx, rdAddr2=xxxxx, wrData=xxxxxxxx, Ain=xxxxxxxx, Bin=xxxxxxxx
time=  288 ns, clk=1, reset=1, memdata=xxxxxxxx, memread=x, memwrite=x, addr=xxxxxxxx, writedata=xxxxxxxx, pcout=xxxxxxxx, regwrite=x, wrAddr=xxxxx, rdAddr1=xxxxx, rdAddr2=xxxxx, wrData=xxxxxxxx, Ain=xxxxxxxx, Bin=xxxxxxxx
time=  288 ns, clk=1, reset=1, memdata=xxxxxxxx, memread=x, memwrite=x, addr=xxxxxxxx, writedata=xxxxxXxX, pcout=xXXXXXXx, regwrite=x, wrAddr=xxxxx, rdAddr1=xxxxx, rdAddr2=xxxxx, wrData=xxxxxxxx, Ain=xxxxxxxx, Bin=xxxxxxxx
time=  288 ns, clk=1, reset=1, memdata=xxxxxxxx, memread=x, memwrite=x, addr=xxxxxxxx, writedata=00000000, pcout=00000000, regwrite=x, wrAddr=xxxxx, rdAddr1=00000, rdAddr2=00000, wrData=xxxxxxxx, Ain=xxxxxxxx, Bin=xxxxxxxx
time=  288 ns, clk=1, reset=1, memdata=xxxxxxxx, memread=x, memwrite=0, addr=xxxxxxxx, writedata=00000000, pcout=00000000, regwrite=x, wrAddr=xxxxx, rdAddr1=00000, rdAddr2=00000, wrData=xxxxxxxx, Ain=xxxxxxxx, Bin=xxxxxxxx
time=  288 ns, clk=1, reset=1, memdata=xxxxxxxx, memread=x, memwrite=0, addr=xXXxXxXx, writedata=00000000, pcout=00000000, regwrite=x, wrAddr=xxxxx, rdAddr1=00000, rdAddr2=00000, wrData=xxxxxxxx, Ain=xxxxxxxx, Bin=xxxxxxxx
time=  288 ns, clk=1, reset=1, memdata=xxxxxxxx, memread=x, memwrite=0, addr=xXXxXxXx, writedata=00000000, pcout=00000000, regwrite=0, wrAddr=xxxxx, rdAddr1=00000, rdAddr2=00000, wrData=xxxxxxxx, Ain=xxxxxxxx, Bin=xxxxxxxx
time=  288 ns, clk=1, reset=1, memdata=xxxxxxxx, memread=x, memwrite=0, addr=xXXXXXXx, writedata=00000000, pcout=00000000, regwrite=0, wrAddr=xxxxx, rdAddr1=00000, rdAddr2=00000, wrData=xxxxxxxx, Ain=xxxxxxxx, Bin=xxxxxxxx
time=  288 ns, clk=1, reset=1, memdata=xxxxxxxx, memread=x, memwrite=0, addr=xXXXXXXx, writedata=00000000, pcout=00000000, regwrite=0, wrAddr=xxxxx, rdAddr1=00000, rdAddr2=00000, wrData=xxxxxxX0, Ain=xxxxxxxx, Bin=xxxxxxxx
time=  288 ns, clk=1, reset=1, memdata=xxxxxxxx, memread=x, memwrite=0, addr=xXXXXXXx, writedata=00000000, pcout=00000000, regwrite=0, wrAddr=x0000, rdAddr1=00000, rdAddr2=00000, wrData=xXxXXxX0, Ain=xxxxxxxx, Bin=xxxxxxxx
time=  288 ns, clk=1, reset=1, memdata=xxxxxxxx, memread=x, memwrite=0, addr=xXXXXXXx, writedata=00000000, pcout=00000000, regwrite=0, wrAddr=00000, rdAddr1=00000, rdAddr2=00000, wrData=xXxXXxX0, Ain=xxxxxxxx, Bin=xxxxxxxx
time=  288 ns, clk=1, reset=1, memdata=xxxxxxxx, memread=1, memwrite=0, addr=xXXXXXXx, writedata=00000000, pcout=00000000, regwrite=0, wrAddr=00000, rdAddr1=00000, rdAddr2=00000, wrData=xXxXXxX0, Ain=xxxxxxxx, Bin=xxxxxxxx
time=  288 ns, clk=1, reset=1, memdata=xxxxxxxx, memread=1, memwrite=0, addr=00000000, writedata=00000000, pcout=00000000, regwrite=0, wrAddr=00000, rdAddr1=00000, rdAddr2=00000, wrData=xXXXXxX0, Ain=xxxxxxxx, Bin=xxxxxxxx
time=  288 ns, clk=1, reset=1, memdata=xxxxxxxx, memread=1, memwrite=0, addr=00000000, writedata=00000000, pcout=00000000, regwrite=0, wrAddr=00000, rdAddr1=00000, rdAddr2=00000, wrData=XXX0XXX0, Ain=xxxxxxxx, Bin=xxxxxxxx
time=  288 ns, clk=1, reset=1, memdata=xxxxxxxx, memread=1, memwrite=0, addr=00000000, writedata=00000000, pcout=00000000, regwrite=0, wrAddr=00000, rdAddr1=00000, rdAddr2=00000, wrData=00000X00, Ain=xxxxxxxx, Bin=xxxxxxxx
time=  288 ns, clk=1, reset=1, memdata=xxxxxxxx, memread=1, memwrite=0, addr=00000000, writedata=00000000, pcout=00000000, regwrite=0, wrAddr=00000, rdAddr1=00000, rdAddr2=00000, wrData=00000000, Ain=xxxxxxxx, Bin=xxxxxxxx
time=  288 ns, clk=1, reset=1, memdata=xxxxxxxx, memread=1, memwrite=0, addr=00000000, writedata=00000000, pcout=00000000, regwrite=0, wrAddr=00000, rdAddr1=00000, rdAddr2=00000, wrData=00000000, Ain=xxxxxxxx, Bin=00000000
time=  289 ns, clk=1, reset=1, memdata=xxxxxxxx, memread=1, memwrite=0, addr=00000000, writedata=00000000, pcout=00000000, regwrite=0, wrAddr=00000, rdAddr1=00000, rdAddr2=00000, wrData=00000000, Ain=00000000, Bin=00000000
time=  576 ns, clk=0, reset=0, memdata=0800000a, memread=1, memwrite=0, addr=00000000, writedata=00000000, pcout=00000000, regwrite=0, wrAddr=00000, rdAddr1=00000, rdAddr2=00000, wrData=00000000, Ain=00000000, Bin=00000000
time=  864 ns, clk=1, reset=0, memdata=0800000a, memread=1, memwrite=0, addr=00000000, writedata=00000000, pcout=00000000, regwrite=0, wrAddr=00000, rdAddr1=00000, rdAddr2=00000, wrData=00000000, Ain=00000000, Bin=00000000
time=  864 ns, clk=1, reset=0, memdata=0800000a, memread=0, memwrite=0, addr=00000000, writedata=00000000, pcout=00000000, regwrite=0, wrAddr=00000, rdAddr1=00000, rdAddr2=00000, wrData=00000000, Ain=00000000, Bin=00000000
time=  864 ns, clk=1, reset=0, memdata=0800000a, memread=0, memwrite=0, addr=00000000, writedata=00000000, pcout=00000001, regwrite=0, wrAddr=00000, rdAddr1=00000, rdAddr2=00000, wrData=00000000, Ain=00000000, Bin=00000000
time=  864 ns, clk=1, reset=0, memdata=0800000a, memread=0, memwrite=0, addr=00000000, writedata=00000000, pcout=00000001, regwrite=0, wrAddr=00000, rdAddr1=00000, rdAddr2=00000, wrData=00000001, Ain=00000000, Bin=00000000
time=  864 ns, clk=1, reset=0, memdata=0800000a, memread=0, memwrite=0, addr=00000001, writedata=00000000, pcout=00000001, regwrite=0, wrAddr=00000, rdAddr1=00000, rdAddr2=00000, wrData=00000001, Ain=00000000, Bin=00000000
time= 1152 ns, clk=0, reset=0, memdata=00000000, memread=0, memwrite=0, addr=00000001, writedata=00000000, pcout=00000001, regwrite=0, wrAddr=00000, rdAddr1=00000, rdAddr2=00000, wrData=00000001, Ain=00000000, Bin=00000000
time= 1440 ns, clk=1, reset=0, memdata=00000000, memread=0, memwrite=0, addr=00000001, writedata=00000000, pcout=00000001, regwrite=0, wrAddr=00000, rdAddr1=00000, rdAddr2=00000, wrData=00000001, Ain=00000000, Bin=00000000
time= 1440 ns, clk=1, reset=0, memdata=00000000, memread=1, memwrite=0, addr=00000001, writedata=00000000, pcout=00000001, regwrite=0, wrAddr=00000, rdAddr1=00000, rdAddr2=00000, wrData=00000001, Ain=00000000, Bin=00000000
time= 1440 ns, clk=1, reset=0, memdata=00000000, memread=1, memwrite=0, addr=00000001, writedata=00000000, pcout=00000001, regwrite=0, wrAddr=00000, rdAddr1=00000, rdAddr2=00000, wrData=0000000b, Ain=00000000, Bin=00000000
time= 1440 ns, clk=1, reset=0, memdata=00000000, memread=0, memwrite=0, addr=00000001, writedata=00000000, pcout=00000001, regwrite=0, wrAddr=00000, rdAddr1=00000, rdAddr2=00000, wrData=0000000b, Ain=00000000, Bin=00000000
time= 1728 ns, clk=0, reset=0, memdata=00000000, memread=0, memwrite=0, addr=00000001, writedata=00000000, pcout=00000001, regwrite=0, wrAddr=00000, rdAddr1=00000, rdAddr2=00000, wrData=0000000b, Ain=00000000, Bin=00000000
time= 2016 ns, clk=1, reset=0, memdata=00000000, memread=0, memwrite=0, addr=00000001, writedata=00000000, pcout=00000001, regwrite=0, wrAddr=00000, rdAddr1=00000, rdAddr2=00000, wrData=0000000b, Ain=00000000, Bin=00000000
time= 2016 ns, clk=1, reset=0, memdata=00000000, memread=0, memwrite=0, addr=00000001, writedata=00000000, pcout=0000000b, regwrite=0, wrAddr=00000, rdAddr1=00000, rdAddr2=00000, wrData=0000000b, Ain=00000000, Bin=00000000
time= 2016 ns, clk=1, reset=0, memdata=00000000, memread=0, memwrite=0, addr=00000001, writedata=00000000, pcout=0000000a, regwrite=0, wrAddr=00000, rdAddr1=00000, rdAddr2=00000, wrData=0000000b, Ain=00000000, Bin=00000000
time= 2016 ns, clk=1, reset=0, memdata=00000000, memread=0, memwrite=0, addr=00000001, writedata=00000000, pcout=0000000a, regwrite=0, wrAddr=00000, rdAddr1=00000, rdAddr2=00000, wrData=00000002, Ain=00000000, Bin=00000000
time= 2016 ns, clk=1, reset=0, memdata=00000000, memread=0, memwrite=0, addr=00000003, writedata=00000000, pcout=0000000a, regwrite=0, wrAddr=00000, rdAddr1=00000, rdAddr2=00000, wrData=00000002, Ain=00000000, Bin=00000000
time= 2016 ns, clk=1, reset=0, memdata=00000000, memread=0, memwrite=0, addr=0000000b, writedata=00000000, pcout=0000000a, regwrite=0, wrAddr=00000, rdAddr1=00000, rdAddr2=00000, wrData=00000002, Ain=00000000, Bin=00000000
time= 2016 ns, clk=1, reset=0, memdata=00000000, memread=1, memwrite=0, addr=0000000b, writedata=00000000, pcout=0000000a, regwrite=0, wrAddr=00000, rdAddr1=00000, rdAddr2=00000, wrData=00000002, Ain=00000000, Bin=00000000
time= 2016 ns, clk=1, reset=0, memdata=00000000, memread=1, memwrite=0, addr=0000000a, writedata=00000000, pcout=0000000a, regwrite=0, wrAddr=00000, rdAddr1=00000, rdAddr2=00000, wrData=00000002, Ain=00000000, Bin=00000000
time= 2304 ns, clk=0, reset=0, memdata=8c01001f, memread=1, memwrite=0, addr=0000000a, writedata=00000000, pcout=0000000a, regwrite=0, wrAddr=00000, rdAddr1=00000, rdAddr2=00000, wrData=00000002, Ain=00000000, Bin=00000000
time= 2592 ns, clk=1, reset=0, memdata=8c01001f, memread=1, memwrite=0, addr=0000000a, writedata=00000000, pcout=0000000a, regwrite=0, wrAddr=00000, rdAddr1=00000, rdAddr2=00000, wrData=00000002, Ain=00000000, Bin=00000000
time= 2592 ns, clk=1, reset=0, memdata=8c01001f, memread=0, memwrite=0, addr=0000000a, writedata=00000000, pcout=0000000a, regwrite=0, wrAddr=00000, rdAddr1=00000, rdAddr2=00000, wrData=00000002, Ain=00000000, Bin=00000000
time= 2592 ns, clk=1, reset=0, memdata=8c01001f, memread=0, memwrite=0, addr=0000000a, writedata=00000000, pcout=0000000b, regwrite=0, wrAddr=00000, rdAddr1=00000, rdAddr2=00001, wrData=00000002, Ain=00000000, Bin=00000000
time= 2592 ns, clk=1, reset=0, memdata=8c01001f, memread=0, memwrite=0, addr=0000000a, writedata=00000000, pcout=0000000b, regwrite=0, wrAddr=00000, rdAddr1=00000, rdAddr2=00001, wrData=0000000b, Ain=00000000, Bin=00000000
time= 2592 ns, clk=1, reset=0, memdata=8c01001f, memread=0, memwrite=0, addr=0000000b, writedata=00000000, pcout=0000000b, regwrite=0, wrAddr=00000, rdAddr1=00000, rdAddr2=00001, wrData=0000000b, Ain=00000000, Bin=00000000
time= 2592 ns, clk=1, reset=0, memdata=8c01001f, memread=0, memwrite=0, addr=0000000b, writedata=00000000, pcout=0000000b, regwrite=0, wrAddr=00001, rdAddr1=00000, rdAddr2=00001, wrData=0000000b, Ain=00000000, Bin=00000000
time= 2593 ns, clk=1, reset=0, memdata=8c01001f, memread=0, memwrite=0, addr=0000000b, writedata=00000000, pcout=0000000b, regwrite=0, wrAddr=00001, rdAddr1=00000, rdAddr2=00001, wrData=0000000b, Ain=00000000, Bin=xxxxxxxx
time= 2880 ns, clk=0, reset=0, memdata=8c020020, memread=0, memwrite=0, addr=0000000b, writedata=00000000, pcout=0000000b, regwrite=0, wrAddr=00001, rdAddr1=00000, rdAddr2=00001, wrData=0000000b, Ain=00000000, Bin=xxxxxxxx
time= 3168 ns, clk=1, reset=0, memdata=8c020020, memread=0, memwrite=0, addr=0000000b, writedata=00000000, pcout=0000000b, regwrite=0, wrAddr=00001, rdAddr1=00000, rdAddr2=00001, wrData=0000000b, Ain=00000000, Bin=xxxxxxxx
time= 3168 ns, clk=1, reset=0, memdata=8c020020, memread=1, memwrite=0, addr=0000000b, writedata=00000000, pcout=0000000b, regwrite=0, wrAddr=00001, rdAddr1=00000, rdAddr2=00001, wrData=0000000b, Ain=00000000, Bin=xxxxxxxx
time= 3168 ns, clk=1, reset=0, memdata=8c020020, memread=1, memwrite=0, addr=0000000b, writedata=00000X0X, pcout=0000000b, regwrite=0, wrAddr=00001, rdAddr1=00000, rdAddr2=00001, wrData=0000000b, Ain=00000000, Bin=xxxxxxxx
time= 3168 ns, clk=1, reset=0, memdata=8c020020, memread=1, memwrite=0, addr=0000000b, writedata=xxxxxxxx, pcout=0000000b, regwrite=0, wrAddr=00001, rdAddr1=00000, rdAddr2=00001, wrData=0000000b, Ain=00000000, Bin=xxxxxxxx
time= 3168 ns, clk=1, reset=0, memdata=8c020020, memread=1, memwrite=0, addr=0000000b, writedata=xxxxxxxx, pcout=0000000b, regwrite=0, wrAddr=00001, rdAddr1=00000, rdAddr2=00001, wrData=0000002b, Ain=00000000, Bin=xxxxxxxx
time= 3168 ns, clk=1, reset=0, memdata=8c020020, memread=0, memwrite=0, addr=0000000b, writedata=xxxxxxxx, pcout=0000000b, regwrite=0, wrAddr=00001, rdAddr1=00000, rdAddr2=00001, wrData=0000002b, Ain=00000000, Bin=xxxxxxxx
time= 3168 ns, clk=1, reset=0, memdata=8c020020, memread=0, memwrite=0, addr=0000000b, writedata=xxxxxxxx, pcout=0000000b, regwrite=0, wrAddr=00001, rdAddr1=00000, rdAddr2=00001, wrData=0000002a, Ain=00000000, Bin=xxxxxxxx
time= 3456 ns, clk=0, reset=0, memdata=8c020020, memread=0, memwrite=0, addr=0000000b, writedata=xxxxxxxx, pcout=0000000b, regwrite=0, wrAddr=00001, rdAddr1=00000, rdAddr2=00001, wrData=0000002a, Ain=00000000, Bin=xxxxxxxx
time= 3744 ns, clk=1, reset=0, memdata=8c020020, memread=0, memwrite=0, addr=0000000b, writedata=xxxxxxxx, pcout=0000000b, regwrite=0, wrAddr=00001, rdAddr1=00000, rdAddr2=00001, wrData=0000002a, Ain=00000000, Bin=xxxxxxxx
time= 3744 ns, clk=1, reset=0, memdata=8c020020, memread=1, memwrite=0, addr=0000000b, writedata=xxxxxxxx, pcout=0000000b, regwrite=0, wrAddr=00001, rdAddr1=00000, rdAddr2=00001, wrData=0000002a, Ain=00000000, Bin=xxxxxxxx
time= 3744 ns, clk=1, reset=0, memdata=8c020020, memread=1, memwrite=0, addr=0000001f, writedata=xxxxxxxx, pcout=0000000b, regwrite=0, wrAddr=00001, rdAddr1=00000, rdAddr2=00001, wrData=0000002a, Ain=00000000, Bin=xxxxxxxx
time= 3744 ns, clk=1, reset=0, memdata=8c020020, memread=1, memwrite=0, addr=0000001f, writedata=xxxxxxxx, pcout=0000000b, regwrite=0, wrAddr=00001, rdAddr1=00000, rdAddr2=00001, wrData=0000003f, Ain=00000000, Bin=xxxxxxxx
time= 3744 ns, clk=1, reset=0, memdata=8c020020, memread=1, memwrite=0, addr=0000001f, writedata=xxxxxxxx, pcout=0000000b, regwrite=0, wrAddr=00001, rdAddr1=00000, rdAddr2=00001, wrData=0000001f, Ain=00000000, Bin=xxxxxxxx
time= 4032 ns, clk=0, reset=0, memdata=00000003, memread=1, memwrite=0, addr=0000001f, writedata=xxxxxxxx, pcout=0000000b, regwrite=0, wrAddr=00001, rdAddr1=00000, rdAddr2=00001, wrData=0000001f, Ain=00000000, Bin=xxxxxxxx
time= 4320 ns, clk=1, reset=0, memdata=00000003, memread=1, memwrite=0, addr=0000001f, writedata=xxxxxxxx, pcout=0000000b, regwrite=0, wrAddr=00001, rdAddr1=00000, rdAddr2=00001, wrData=0000001f, Ain=00000000, Bin=xxxxxxxx
time= 4320 ns, clk=1, reset=0, memdata=00000003, memread=1, memwrite=0, addr=0000001f, writedata=xxxxxxxx, pcout=0000000b, regwrite=1, wrAddr=00001, rdAddr1=00000, rdAddr2=00001, wrData=0000001f, Ain=00000000, Bin=xxxxxxxx
time= 4320 ns, clk=1, reset=0, memdata=00000003, memread=1, memwrite=0, addr=0000001f, writedata=xxxxxxxx, pcout=0000000b, regwrite=1, wrAddr=00001, rdAddr1=00000, rdAddr2=00001, wrData=00000003, Ain=00000000, Bin=xxxxxxxx
time= 4608 ns, clk=0, reset=0, memdata=00000003, memread=1, memwrite=0, addr=0000001f, writedata=xxxxxxxx, pcout=0000000b, regwrite=1, wrAddr=00001, rdAddr1=00000, rdAddr2=00001, wrData=00000003, Ain=00000000, Bin=xxxxxxxx
time= 4896 ns, clk=1, reset=0, memdata=00000003, memread=1, memwrite=0, addr=0000001f, writedata=xxxxxxxx, pcout=0000000b, regwrite=1, wrAddr=00001, rdAddr1=00000, rdAddr2=00001, wrData=00000003, Ain=00000000, Bin=xxxxxxxx
time= 4896 ns, clk=1, reset=0, memdata=00000003, memread=1, memwrite=1, addr=0000001f, writedata=xxxxxxxx, pcout=0000000b, regwrite=1, wrAddr=00001, rdAddr1=00000, rdAddr2=00001, wrData=00000003, Ain=00000000, Bin=xxxxxxxx
time= 4896 ns, clk=1, reset=0, memdata=00000003, memread=0, memwrite=1, addr=0000001f, writedata=xxxxxxxx, pcout=0000000b, regwrite=1, wrAddr=00001, rdAddr1=00000, rdAddr2=00001, wrData=00000003, Ain=00000000, Bin=xxxxxxxx
time= 4896 ns, clk=1, reset=0, memdata=00000003, memread=0, memwrite=0, addr=0000001f, writedata=xxxxxxxx, pcout=0000000b, regwrite=1, wrAddr=00001, rdAddr1=00000, rdAddr2=00001, wrData=00000003, Ain=00000000, Bin=xxxxxxxx
time= 4896 ns, clk=1, reset=0, memdata=00000003, memread=0, memwrite=0, addr=0000000b, writedata=xxxxxxxx, pcout=0000000b, regwrite=1, wrAddr=00001, rdAddr1=00000, rdAddr2=00001, wrData=00000003, Ain=00000000, Bin=xxxxxxxx
time= 4896 ns, clk=1, reset=0, memdata=00000003, memread=0, memwrite=0, addr=0000000b, writedata=xxxxxxxx, pcout=0000000b, regwrite=0, wrAddr=00001, rdAddr1=00000, rdAddr2=00001, wrData=00000003, Ain=00000000, Bin=xxxxxxxx
time= 4896 ns, clk=1, reset=0, memdata=00000003, memread=1, memwrite=0, addr=0000000b, writedata=xxxxxxxx, pcout=0000000b, regwrite=0, wrAddr=00001, rdAddr1=00000, rdAddr2=00001, wrData=00000003, Ain=00000000, Bin=xxxxxxxx
time= 4896 ns, clk=1, reset=0, memdata=00000003, memread=1, memwrite=0, addr=0000000b, writedata=xxxxxxxx, pcout=0000000b, regwrite=0, wrAddr=00001, rdAddr1=00000, rdAddr2=00001, wrData=00000003, Ain=00000000, Bin=xxxXxxxx
time= 4896 ns, clk=1, reset=0, memdata=00000003, memread=1, memwrite=0, addr=0000000b, writedata=xxxxxxxx, pcout=0000000b, regwrite=0, wrAddr=00001, rdAddr1=00000, rdAddr2=00001, wrData=00000003, Ain=00000000, Bin=xxxXxxxX
time= 4896 ns, clk=1, reset=0, memdata=00000003, memread=1, memwrite=0, addr=0000000b, writedata=xxxxxxxx, pcout=0000000b, regwrite=0, wrAddr=00001, rdAddr1=00000, rdAddr2=00001, wrData=00000003, Ain=00000000, Bin=00000X03
time= 4896 ns, clk=1, reset=0, memdata=00000003, memread=1, memwrite=0, addr=0000000b, writedata=xxxxxxxx, pcout=0000000b, regwrite=0, wrAddr=00001, rdAddr1=00000, rdAddr2=00001, wrData=0000001f, Ain=00000000, Bin=00000X03
time= 4896 ns, clk=1, reset=0, memdata=00000003, memread=1, memwrite=0, addr=0000000b, writedata=xxxxxxxx, pcout=0000000b, regwrite=0, wrAddr=00001, rdAddr1=00000, rdAddr2=00001, wrData=0000001f, Ain=00000000, Bin=00000003
time= 5184 ns, clk=0, reset=0, memdata=8c020020, memread=1, memwrite=0, addr=0000000b, writedata=xxxxxxxx, pcout=0000000b, regwrite=0, wrAddr=00001, rdAddr1=00000, rdAddr2=00001, wrData=0000001f, Ain=00000000, Bin=00000003
time= 5472 ns, clk=1, reset=0, memdata=8c020020, memread=1, memwrite=0, addr=0000000b, writedata=xxxxxxxx, pcout=0000000b, regwrite=0, wrAddr=00001, rdAddr1=00000, rdAddr2=00001, wrData=0000001f, Ain=00000000, Bin=00000003
time= 5472 ns, clk=1, reset=0, memdata=8c020020, memread=0, memwrite=0, addr=0000000b, writedata=xxxxxxxx, pcout=0000000b, regwrite=0, wrAddr=00001, rdAddr1=00000, rdAddr2=00001, wrData=0000001f, Ain=00000000, Bin=00000003
time= 5472 ns, clk=1, reset=0, memdata=8c020020, memread=0, memwrite=0, addr=0000000b, writedata=xxxxxXxX, pcout=0000000b, regwrite=0, wrAddr=00001, rdAddr1=00000, rdAddr2=00001, wrData=0000001f, Ain=00000000, Bin=00000003
time= 5472 ns, clk=1, reset=0, memdata=8c020020, memread=0, memwrite=0, addr=0000000b, writedata=xxxxxXxX, pcout=0000000f, regwrite=0, wrAddr=00001, rdAddr1=00000, rdAddr2=00011, wrData=0000001f, Ain=00000000, Bin=00000003
time= 5472 ns, clk=1, reset=0, memdata=8c020020, memread=0, memwrite=0, addr=0000000b, writedata=00000003, pcout=0000000c, regwrite=0, wrAddr=00001, rdAddr1=00000, rdAddr2=00010, wrData=0000001f, Ain=00000000, Bin=00000003
time= 5472 ns, clk=1, reset=0, memdata=8c020020, memread=0, memwrite=0, addr=0000000b, writedata=00000003, pcout=0000000c, regwrite=0, wrAddr=00001, rdAddr1=00000, rdAddr2=00010, wrData=0000000c, Ain=00000000, Bin=00000003
time= 5472 ns, clk=1, reset=0, memdata=8c020020, memread=0, memwrite=0, addr=0000000f, writedata=00000003, pcout=0000000c, regwrite=0, wrAddr=00001, rdAddr1=00000, rdAddr2=00010, wrData=0000000c, Ain=00000000, Bin=00000003
time= 5472 ns, clk=1, reset=0, memdata=8c020020, memread=0, memwrite=0, addr=0000000f, writedata=00000003, pcout=0000000c, regwrite=0, wrAddr=00011, rdAddr1=00000, rdAddr2=00010, wrData=0000000c, Ain=00000000, Bin=00000003
time= 5472 ns, clk=1, reset=0, memdata=8c020020, memread=0, memwrite=0, addr=0000000c, writedata=00000003, pcout=0000000c, regwrite=0, wrAddr=00010, rdAddr1=00000, rdAddr2=00010, wrData=0000000c, Ain=00000000, Bin=00000003
time= 5473 ns, clk=1, reset=0, memdata=8c020020, memread=0, memwrite=0, addr=0000000c, writedata=00000003, pcout=0000000c, regwrite=0, wrAddr=00010, rdAddr1=00000, rdAddr2=00010, wrData=0000000c, Ain=00000000, Bin=0000000X
time= 5473 ns, clk=1, reset=0, memdata=8c020020, memread=0, memwrite=0, addr=0000000c, writedata=00000003, pcout=0000000c, regwrite=0, wrAddr=00010, rdAddr1=00000, rdAddr2=00010, wrData=0000000c, Ain=00000000, Bin=xxxxxxxx
time= 5760 ns, clk=0, reset=0, memdata=00221820, memread=0, memwrite=0, addr=0000000c, writedata=00000003, pcout=0000000c, regwrite=0, wrAddr=00010, rdAddr1=00000, rdAddr2=00010, wrData=0000000c, Ain=00000000, Bin=xxxxxxxx
time= 6048 ns, clk=1, reset=0, memdata=00221820, memread=0, memwrite=0, addr=0000000c, writedata=00000003, pcout=0000000c, regwrite=0, wrAddr=00010, rdAddr1=00000, rdAddr2=00010, wrData=0000000c, Ain=00000000, Bin=xxxxxxxx
time= 6048 ns, clk=1, reset=0, memdata=00221820, memread=1, memwrite=0, addr=0000000c, writedata=00000003, pcout=0000000c, regwrite=0, wrAddr=00010, rdAddr1=00000, rdAddr2=00010, wrData=0000000c, Ain=00000000, Bin=xxxxxxxx
time= 6048 ns, clk=1, reset=0, memdata=00221820, memread=1, memwrite=0, addr=0000000c, writedata=00000X0X, pcout=0000000c, regwrite=0, wrAddr=00010, rdAddr1=00000, rdAddr2=00010, wrData=0000000c, Ain=00000000, Bin=xxxxxxxx
time= 6048 ns, clk=1, reset=0, memdata=00221820, memread=1, memwrite=0, addr=0000000c, writedata=xxxxxxxX, pcout=0000000c, regwrite=0, wrAddr=00010, rdAddr1=00000, rdAddr2=00010, wrData=0000000c, Ain=00000000, Bin=xxxxxxxx
time= 6048 ns, clk=1, reset=0, memdata=00221820, memread=1, memwrite=0, addr=0000000c, writedata=xxxxxxxx, pcout=0000000c, regwrite=0, wrAddr=00010, rdAddr1=00000, rdAddr2=00010, wrData=0000000c, Ain=00000000, Bin=xxxxxxxx
time= 6048 ns, clk=1, reset=0, memdata=00221820, memread=1, memwrite=0, addr=0000000c, writedata=xxxxxxxx, pcout=0000000c, regwrite=0, wrAddr=00010, rdAddr1=00000, rdAddr2=00010, wrData=0000002c, Ain=00000000, Bin=xxxxxxxx
time= 6048 ns, clk=1, reset=0, memdata=00221820, memread=0, memwrite=0, addr=0000000c, writedata=xxxxxxxx, pcout=0000000c, regwrite=0, wrAddr=00010, rdAddr1=00000, rdAddr2=00010, wrData=0000002c, Ain=00000000, Bin=xxxxxxxx
time= 6336 ns, clk=0, reset=0, memdata=00221820, memread=0, memwrite=0, addr=0000000c, writedata=xxxxxxxx, pcout=0000000c, regwrite=0, wrAddr=00010, rdAddr1=00000, rdAddr2=00010, wrData=0000002c, Ain=00000000, Bin=xxxxxxxx
time= 6624 ns, clk=1, reset=0, memdata=00221820, memread=0, memwrite=0, addr=0000000c, writedata=xxxxxxxx, pcout=0000000c, regwrite=0, wrAddr=00010, rdAddr1=00000, rdAddr2=00010, wrData=0000002c, Ain=00000000, Bin=xxxxxxxx
time= 6624 ns, clk=1, reset=0, memdata=00221820, memread=1, memwrite=0, addr=0000000c, writedata=xxxxxxxx, pcout=0000000c, regwrite=0, wrAddr=00010, rdAddr1=00000, rdAddr2=00010, wrData=0000002c, Ain=00000000, Bin=xxxxxxxx
time= 6624 ns, clk=1, reset=0, memdata=00221820, memread=1, memwrite=0, addr=0000002c, writedata=xxxxxxxx, pcout=0000000c, regwrite=0, wrAddr=00010, rdAddr1=00000, rdAddr2=00010, wrData=0000002c, Ain=00000000, Bin=xxxxxxxx
time= 6624 ns, clk=1, reset=0, memdata=00221820, memread=1, memwrite=0, addr=0000002c, writedata=xxxxxxxx, pcout=0000000c, regwrite=0, wrAddr=00010, rdAddr1=00000, rdAddr2=00010, wrData=00000020, Ain=00000000, Bin=xxxxxxxx
time= 6624 ns, clk=1, reset=0, memdata=00221820, memread=1, memwrite=0, addr=00000020, writedata=xxxxxxxx, pcout=0000000c, regwrite=0, wrAddr=00010, rdAddr1=00000, rdAddr2=00010, wrData=00000020, Ain=00000000, Bin=xxxxxxxx
time= 6912 ns, clk=0, reset=0, memdata=00000005, memread=1, memwrite=0, addr=00000020, writedata=xxxxxxxx, pcout=0000000c, regwrite=0, wrAddr=00010, rdAddr1=00000, rdAddr2=00010, wrData=00000020, Ain=00000000, Bin=xxxxxxxx
time= 7200 ns, clk=1, reset=0, memdata=00000005, memread=1, memwrite=0, addr=00000020, writedata=xxxxxxxx, pcout=0000000c, regwrite=0, wrAddr=00010, rdAddr1=00000, rdAddr2=00010, wrData=00000020, Ain=00000000, Bin=xxxxxxxx
time= 7200 ns, clk=1, reset=0, memdata=00000005, memread=1, memwrite=0, addr=00000020, writedata=xxxxxxxx, pcout=0000000c, regwrite=1, wrAddr=00010, rdAddr1=00000, rdAddr2=00010, wrData=00000020, Ain=00000000, Bin=xxxxxxxx
time= 7200 ns, clk=1, reset=0, memdata=00000005, memread=1, memwrite=0, addr=00000020, writedata=xxxxxxxx, pcout=0000000c, regwrite=1, wrAddr=00010, rdAddr1=00000, rdAddr2=00010, wrData=00000025, Ain=00000000, Bin=xxxxxxxx
time= 7200 ns, clk=1, reset=0, memdata=00000005, memread=1, memwrite=0, addr=00000020, writedata=xxxxxxxx, pcout=0000000c, regwrite=1, wrAddr=00010, rdAddr1=00000, rdAddr2=00010, wrData=00000005, Ain=00000000, Bin=xxxxxxxx
time= 7488 ns, clk=0, reset=0, memdata=00000005, memread=1, memwrite=0, addr=00000020, writedata=xxxxxxxx, pcout=0000000c, regwrite=1, wrAddr=00010, rdAddr1=00000, rdAddr2=00010, wrData=00000005, Ain=00000000, Bin=xxxxxxxx
