Results/28nm/vcs_post_par/inter.vcd
$timescale
 1ps
$end

$scope module mips_processor_tb $end
$var reg        1 "    clk $end
$var reg        1 #    reset $end
$var reg       32 $    memdata [31:0] $end
$var reg        1 3    memread $end
$var reg        1 4    memwrite $end
$var reg        1 5    regwrite $end
$var reg       32 `&   addr [31:0] $end
$var reg       32 a&   writedata [31:0] $end
$var reg       32 b&   wrData [31:0] $end
$var reg       32 c&   Ain [31:0] $end
$var reg       32 d&   Bin [31:0] $end
$var reg       32 e&   pcout [31:0] $end
$var reg        5 f&   wrAddr [4:0] $end
$var reg        5 ^&   rdAddr1 [4:0] $end
$var reg        5 _&   rdAddr2 [4:0] $end
$var reg        1 %    memread_exp $end
$var reg        1 &    memwrite_exp $end
$var reg        1 '    regwrite_exp $end
$var reg       32 (    addr_exp [31:0] $end
$var reg       32 )    writedata_exp [31:0] $end
$var reg       32 *    wrData_exp [31:0] $end
$var reg       32 +    Ain_exp [31:0] $end
$var reg       32 ,    Bin_exp [31:0] $end
$var reg       32 -    pcout_exp [31:0] $end
$var reg        5 .    wrAddr_exp [4:0] $end
$var reg        5 /    rdAddr1_exp [4:0] $end
$var reg        5 0    rdAddr2_exp [4:0] $end
$var reg       16 1    vectornum [15:0] $end
$var reg       16 2    errors [15:0] $end
$upscope $end
$enddefinitions $end
#0
$dumpvars
b00000000000000000000000000000000 +
b00000000000000000000000000000000 ,
b00000000000000000000000000000000 -
0"
b00000 .
1#
b00000 /
bxxxxxxxxxxxxxxxxxxxxxxxxxxxxxxxx $
b00000 0
1%
b0000000000000000 1
0&
b0000000000000000 2
0'
b00000000000000000000000000000000 (
x3
b00000000000000000000000000000000 )
x4
b00000000000000000000000000000000 *
x5
bxxxxxxxxxxxxxxxxxxxxxxxxxxxxxxxx d&
bxxxxxxxxxxxxxxxxxxxxxxxxxxxxxxxx c&
bxxxxxxxxxxxxxxxxxxxxxxxxxxxxxxxx b&
bxxxxxxxxxxxxxxxxxxxxxxxxxxxxxxxx a&
bxxxxxxxxxxxxxxxxxxxxxxxxxxxxxxxx `&
bxxxxx f&
bxxxxxxxxxxxxxxxxxxxxxxxxxxxxxxxx e&
bxxxxx ^&
bxxxxx _&
$end
#288000
1"
#288257
bxxxxxxx0000x0x0x000xxxx0x000xxxx e&
bxxxxxxxxxxxxxxxxxxxx000xxxxx0xxx a&
#288282
b00000000000000000000000000000000 e&
b00000 ^&
b00000 _&
b00000000000000000000000000000000 a&
#288302
04
#288328
bxxxxxxx000xxxxxxxx0xxxxxx000xxxx `&
#288338
05
#288343
bxxxxxxx0000x0x0x000xxxx0x000xxxx `&
#288347
bxxxxxxxxxxxxxxxxxxxxxxxxxxx00000 b&
#288348
bx0000 f&
bxxxx00xxxxxx0xx00xxxxxxxxxx00000 b&
#288353
b00000 f&
#288357
13
#288367
b00000000000000000000000000000000 `&
bxxxx00xxx0xx0xx00xxxxxxxxxx00000 b&
#288372
b000x00xxx000000000xxx0x0xxx00000 b&
#288391
b0000000000000000000000x000000000 b&
#288397
b00000000000000000000000000000000 b&
#288498
b00000000000000000000000000000000 d&
#288579
b00000000000000000000000000000000 c&
#432000
b0000000000000001 1
#576000
0"
b00000000000000000000000000000001 -
0#
b00001000000000000000000000001010 $
0%
b00000000000000000000000000000001 (
b00000000000000000000000000000001 *
#864000
1"
#864227
03
#864265
b00000000000000000000000000000001 e&
#864325
b00000000000000000000000000000001 b&
#864349
b00000000000000000000000000000001 `&
#1008000
b0000000000000010 1
#1152000
0"
b00000000000000000000000000000000 $
b00000000000000000000000000001011 *
#1440000
1"
#1440235
13
#1440328
b00000000000000000000000000001011 b&
#1440335
03
#1584000
b0000000000000011 1
#1728000
0"
b00000000000000000000000000001010 -
1%
b00000000000000000000000000001010 (
b00000000000000000000000000000010 *
#2016000
1"
#2016265
b00000000000000000000000000001011 e&
#2016282
b00000000000000000000000000001010 e&
#2016347
b00000000000000000000000000000010 b&
#2016349
b00000000000000000000000000000011 `&
#2016354
b00000000000000000000000000001011 `&
#2016357
13
#2016367
b00000000000000000000000000001010 `&
#2160000
b0000000000000100 1
#2304000
0"
bxxxxxxxxxxxxxxxxxxxxxxxxxxxxxxxx ,
b00001 .
b00001 0
b10001100000000010000000000011111 $
b00000000000000000000000000001011 -
0%
b00000000000000000000000000001011 (
b00000000000000000000000000001011 *
#2592000
1"
#2592227
03
#2592265
b00001 _&
b00000000000000000000000000001011 e&
#2592328
b00000000000000000000000000001011 b&
#2592349
b00000000000000000000000000001011 `&
#2592354
b00001 f&
#2592507
bxxxxxxxxxxxxxxxxxxxxxxxxxxxxxxxx d&
#2736000
b0000000000000101 1
#2880000
0"
bxxxxxxxxxxxxxxxxxxxxxxxxxxxxxxxx )
b10001100000000100000000000100000 $
b00000000000000000000000000101010 *
#3168000
1"
#3168235
13
#3168240
b00000000000000000000xxx00000x000 a&
#3168265
bxxxxxxxxxxxxxxxxxxxxxxxxxxxxxxxx a&
#3168325
b00000000000000000000000000101011 b&
#3168335
03
#3168347
b00000000000000000000000000101010 b&
#3312000
b0000000000000110 1
#3456000
b00000000000000000000000000011111 *
b00000000000000000000000000011111 (
1%
0"
#3744000
1"
#3744269
13
#3744320
b00000000000000000000000000011111 `&
#3744325
b00000000000000000000000000111111 b&
#3744377
b00000000000000000000000000011111 b&
#3888000
b0000000000000111 1
#4032000
0"
b00000000000000000000000000000011 $
1'
b00000000000000000000000000000011 *
#4320000
1"
#4320375
15
#4320428
b00000000000000000000000000000011 b&
#4464000
b0000000000001000 1
#4608000
0"
b00000000000000000000000000000011 ,
b00000000000000000000000000001011 (
0'
b00000000000000000000000000011111 *
#4896000
1"
#4896232
14
#4896280
03
#4896302
04
#4896343
b00000000000000000000000000001011 `&
#4896344
05
#4896357
13
#4896381
bxxxxxxxxxxxx000xxxxxxxxxxxxxxxxx d&
#4896396
bxxxxxxxxxxxx000xxxxxxxxxxxxxxx11 d&
#4896406
b000000000000000000000x0000000011 d&
#4896413
b00000000000000000000000000011111 b&
#4896454
b00000000000000000000000000000011 d&
#5040000
b0000000000001001 1
#5184000
0"
b00000000000000000000000000000011 )
b00000000000000000000000000001100 -
b00010 0
b00010 .
0%
b10001100000000100000000000100000 $
bxxxxxxxxxxxxxxxxxxxxxxxxxxxxxxxx ,
b00000000000000000000000000001100 (
b00000000000000000000000000001100 *
#5472000
1"
#5472227
03
#5472257
bxxxxxxxxxxxxxxxxxxxx000xxxxx0xxx a&
#5472265
bxxxxxxxxxxxxxxxxxxxx000xxxxx0x11 a&
b00011 _&
b00000000000000000000000000001111 e&
#5472282
b00000000000000000000000000000011 a&
b00000000000000000000000000001100 e&
b00010 _&
#5472347
b00000000000000000000000000001100 b&
#5472349
b00000000000000000000000000001111 `&
#5472354
b00011 f&
#5472367
b00010 f&
b00000000000000000000000000001100 `&
#5472607
b000000000000000000000000000000xx d&
#5472613
bxxxxxxxxxxxxxxxxxxxxxxxxxxxxxxxx d&
#5616000
b0000000000001010 1
#5760000
0"
bxxxxxxxxxxxxxxxxxxxxxxxxxxxxxxxx )
b00000000001000100001100000100000 $
b00000000000000000000000000101100 *
#6048000
1"
#6048235
13
#6048240
b00000000000000000000xxx00000x011 a&
#6048265
bxxxxxxxxxxxxxxxxxxxxxxxxxxxxxx11 a&
#6048282
bxxxxxxxxxxxxxxxxxxxxxxxxxxxxxxxx a&
#6048328
b00000000000000000000000000101100 b&
#6048335
03
#6192000
b0000000000001011 1
#6336000
b00000000000000000000000000100000 *
b00000000000000000000000000100000 (
1%
0"
#6624000
1"
#6624269
13
#6624320
b00000000000000000000000000101100 `&
#6624347
b00000000000000000000000000100000 b&
#6624383
b00000000000000000000000000100000 `&
#6768000
b0000000000001100 1
#6912000
0"
b00000000000000000000000000000101 $
1'
b00000000000000000000000000000101 *
#7200000
1"
#7200375
15
#7200407
b00000000000000000000000000100101 b&
#7200428
b00000000000000000000000000000101 b&
#7344000
b0000000000001101 1
#7488000
0"
b00000000000000000000000000000101 ,
b00000000000000000000000000001100 (
0'
b00000000000000000000000000100000 *
#7776000
1"
#7776232
14
#7776280
03
#7776302
04
#7776343
b00000000000000000000000000000000 `&
#7776344
05
#7776357
13
#7776379
b00000000000000000000000000001100 `&
#7776394
bxxxxxxxxxxxx00xxxxx0x0xxxxxx0xxx d&
#7776411
bxxxxxxxxxxxx00xxxxx0x0xxxxxx0x0x d&
#7776413
b00000000000000000000000000100101 b&
#7776419
b00000000000000000000000000000x0x d&
#7776428
b00000000000000000000000000100000 b&
#7776441
b00000000000000000000000000000x01 d&
#7776444
b00000000000000000000000000000101 d&
#7920000
b0000000000001110 1
#8064000
0"
b00000000000000000000000000000101 )
b00000000000000000000000000001101 -
b00000000000000000000000000000011 +
b00001 /
0%
b00000000001000100001100000100000 $
b00000000000000000000000000001101 (
b00000000000000000000000000001101 *
#8352000
1"
#8352227
03
#8352257
bxxxxxxxxxxxxxxxxxxxx000xxxxx0xxx a&
#8352265
bxxxxxxxxxxxxxxxxxxxx000xxxxx01x1 a&
b00000000000000000000000000001101 e&
b00001 ^&
#8352282
b00000000000000000000000000000101 a&
#8352325
b00000000000000000000000000101000 b&
#8352328
b00000000000000000000000000101101 b&
#8352347
b00000000000000000000000000001101 b&
#8352349
b00000000000000000000000000001101 `&
#8352555
b00000000000000000000000000000011 c&
#8496000
b0000000000001111 1
#8640000
0"
b00100000010001000001000000010000 $
b00000000000000000001100000101101 *
#8928000
1"
#8928235
13
#8928328
b00000000000000000001100000101101 b&
#8928365
03
#9072000
b0000000000010000 1
#9216000
b00000000000000000000000000001000 *
1'
b00011 .
0"
#9504000
1"
#9504332
15
#9504347
b00000000000000000001000000001000 b&
#9504377
b00000000000000000000000000001000 b&
#9504391
b00011 f&
#9648000
b0000000000010001 1
#9792000
0"
1%
0'
b00010 .
#10080000
1"
#10080339
05
#10080360
13
#10080412
b00010 f&
#10224000
b0000000000010010 1
#10368000
0"
b00000000000000000000000000001110 (
b00010 /
b00000000000000000000000000000101 +
b00000000000000000000000000001110 -
bxxxxxxxxxxxxxxxxxxxxxxxxxxxxxxxx ,
b00100 0
b00000000000000000000000000001110 *
0%
b00100 .
#10656000
1"
#10656227
03
#10656265
b00011 ^&
b00110 _&
b00000000000000000000000000001111 e&
#10656282
b00010 ^&
b00100 _&
b00000000000000000000000000001110 e&
#10656325
b00000000000000000000000000001110 b&
#10656349
b00000000000000000000000000001111 `&
#10656354
b00110 f&
#10656367
b00000000000000000000000000001110 `&
#10656392
b00100 f&
#10656497
b00000000000000000000000000000001 c&
#10656603
b00000000000000000000000000000101 c&
#10656626
bxxxxxxxxxxxxxxxxxxxxxxxxxxxxxxxx d&
#10800000
b0000000000010011 1
#10944000
0"
b00000000010000010010100000100010 $
bxxxxxxxxxxxxxxxxxxxxxxxxxxxxxxxx )
b00000000000000000001000000011110 *
#11232000
1"
#11232235
13
#11232240
b00000000000000000000xxx00000x101 a&
#11232265
bxxxxxxxxxxxxxxxxxxxxxxxxxxxxx1x1 a&
#11232282
bxxxxxxxxxxxxxxxxxxxxxxxxxxxxxxxx a&
#11232328
b00000000000000000001000000011110 b&
#11232351
03
#11376000
b0000000000010100 1
#11520000
0"
1'
b00000000000000000001000000010101 *
#11808000
1"
#11808325
b00000000000000000001000000011111 b&
#11808337
15
#11808347
b00000000000000000001000000010111 b&
#11808377
b00000000000000000001000000010101 b&
#11952000
b0000000000010101 1
#12096000
0'
1%
b00000000000000000001000000010101 ,
0"
#12384000
1"
#12384344
05
#12384367
13
#12384418
bxxxxxxxxxxxxxxxxxxxxx0xx000xxx0x d&
#12384443
b0000000000000000000x0000000x0x0x d&
#12384448
b00000000000000000001000000010101 d&
#12528000
b0000000000010110 1
#12672000
0"
b00000000000000000000000000001111 *
b00000000000000000001000000010101 )
b00001 .
b00001 0
b00000000000000000000000000001111 -
b00000000000000000000000000001111 (
0%
b00000000000000000000000000000011 ,
#12960000
1"
#12960227
03
#12960257
bxxxxxxxxxxxxxxxxxxxx000xxxxx0xxx a&
#12960265
bxxxxxxxxxxxxxxxxxxx1000xxxx101x1 a&
b00000000000000000000000000001111 e&
b00101 _&
#12960282
b00000000000000000001000000010101 a&
b00001 _&
#12960325
b00000000000000000001000000011101 b&
#12960328
b00000000000000000001000000011111 b&
#12960347
b00000000000000000000000000001111 b&
#12960349
b00000000000000000000000000001111 `&
#12960352
b00101 f&
#12960392
b00001 f&
#12960572
b00000000000000000000000000000001 d&
#12960598
b00000000000000000000000000000011 d&
#13104000
b0000000000010111 1
#13248000
0"
b00000000010000010011000000100100 $
b00000000000000000010100000110001 *
b00000000000000000000000000000011 )
#13536000
1"
#13536235
13
#13536265
b00000000000000000001000000010111 a&
#13536282
b00000000000000000000000000000011 a&
#13536325
b00000000000000000000000000011111 b&
#13536328
b00000000000000000010100000111111 b&
#13536347
b00000000000000000010100000110101 b&
#13536365
03
#13536377
b00000000000000000010100000110001 b&
#13680000
b0000000000011000 1
#13824000
0"
1'
b00101 .
b00000000000000000000000000000010 *
#14112000
1"
#14112325
b00000000000000000010100000110011 b&
#14112332
15
#14112347
b00000000000000000010000000100010 b&
#14112377
b00000000000000000000000000000010 b&
#14112391
b00101 f&
#14256000
b0000000000011001 1
#14400000
0"
1%
0'
b00001 .
#14688000
1"
#14688339
05
#14688360
13
#14688412
b00001 f&
#14832000
b0000000000011010 1
#14976000
0%
b00000000000000000000000000010000 *
b00000000000000000000000000010000 (
b00000000000000000000000000010000 -
0"
#15264000
1"
#15264227
03
#15264240
b00000000000000000000000000011111 e&
#15264282
b00000000000000000000000000010000 e&
#15264324
b00000000000000000000000000011111 `&
#15264325
b00000000000000000000000000010010 b&
#15264347
b00000000000000000000000000010000 b&
#15264367
b00000000000000000000000000010000 `&
#15408000
b0000000000011011 1
#15552000
0"
b00110000001001110000000000000001 $
b00000000000000000011000000110100 *
#15840000
1"
#15840235
13
#15840328
b00000000000000000011000000110100 b&
#15840365
03
#15984000
b0000000000011100 1
#16128000
0"
b00110 .
1'
b00000000000000000000000000000001 *
#16416000
1"
#16416328
b00000000000000000011000000110101 b&
#16416332
15
#16416347
b00000000000000000000000000000001 b&
#16416391
b00111 f&
#16416400
b00110 f&
#16560000
b0000000000011101 1
#16704000
0"
1%
b00001 .
0'
#16992000
1"
#16992339
05
#16992360
13
#16992401
b00111 f&
#16992412
b00001 f&
#17136000
b0000000000011110 1
#17280000
0"
bxxxxxxxxxxxxxxxxxxxxxxxxxxxxxxxx ,
b00111 0
b00001 /
b00000000000000000000000000000011 +
b00000000000000000000000000010001 (
b00000000000000000000000000010001 -
b00000000000000000000000000010001 *
0%
b00111 .
#17568000
1"
#17568227
03
#17568265
b00011 ^&
b00111 _&
b00000000000000000000000000010001 e&
#17568282
b00001 ^&
#17568325
b00000000000000000000000000010001 b&
#17568349
b00000000000000000000000000010001 `&
#17568352
b00111 f&
#17568515
b00000000000000000000000000000001 c&
#17568555
b00000000000000000000000000000011 c&
#17568620
b0000000000000000000x0000000x0x1x d&
#17568622
bxxxxxxxxxxxxxxxxxxxxxxxxxxxxxxxx d&
#17712000
b0000000000011111 1
#17856000
b00000000000000000000000000010010 *
b00000000010000010100000000100111 $
bxxxxxxxxxxxxxxxxxxxxxxxxxxxxxxxx )
0"
#18144000
1"
#18144235
13
#18144240
b00000000000000000000xxx00000x011 a&
#18144265
bxxxxxxxxxxxxxxxxxxxxxxxxxxxxxx11 a&
#18144282
bxxxxxxxxxxxxxxxxxxxxxxxxxxxxxxxx a&
#18144328
b00000000000000000000000000010011 b&
#18144351
03
#18144377
b00000000000000000000000000010010 b&
#18288000
b0000000000100000 1
#18432000
0"
1'
b00000000000000000000000000000001 *
#18720000
1"
#18720328
b00000000000000000000000000010011 b&
#18720337
15
#18720347
b00000000000000000000000000000011 b&
#18720377
b00000000000000000000000000000001 b&
#18864000
b0000000000100001 1
#19008000
0"
1%
b00000000000000000000000000000001 ,
0'
#19296000
1"
#19296344
05
#19296367
13
#19296432
b0000xxxxxxxxxx0xxx0xx0xx0x0xxxxx d&
#19296448
b0000xxxxxxxxxx0xxx00x0xx0x0xxxxx d&
#19296457
b0000000000000000000000000x0x0x0x d&
#19296460
b0000000000000000000000000x0x0x01 d&
#19296473
b0000000000000000000000000x000001 d&
#19296505
b00000000000000000000000000000001 d&
#19440000
b0000000000100010 1
#19584000
0"
b00001 .
b00000000000000000000000000010010 -
b00000000000000000000000000010010 (
b00000000000000000000000000000101 +
b00010 /
b00001 0
b00000000000000000000000000000001 )
b00000000000000000000000000010010 *
0%
b00000000000000000000000000000011 ,
#19872000
1"
#19872227
03
#19872257
bxxxxxxxxxxxxxxxxxxxx000xxxxx0xxx a&
#19872265
b00011 ^&
b00000000000000000000000000010011 e&
bxxxxxxxxxxxxxxxxxxxx000xxxxx0xx1 a&
#19872282
b00000000000000000000000000010010 e&
b00010 ^&
b00001 _&
b00000000000000000000000000000001 a&
#19872325
b00000000000000000000000000010001 b&
#19872328
b00000000000000000000000000010011 b&
#19872349
b00000000000000000000000000010011 `&
#19872367
b00001 f&
b00000000000000000000000000010010 `&
#19872377
b00000000000000000000000000010010 b&
#19872497
b00000000000000000000000000000001 c&
#19872589
b00000000000000000000000000000011 d&
#19872603
b00000000000000000000000000000101 c&
#20016000
b0000000000100011 1
#20160000
0"
b00000000010000010100100000100101 $
b00000000000000000000000000000011 )
b00000000000000000100000000111001 *
#20448000
1"
#20448235
13
#20448265
b00000000000000000000000000000011 a&
#20448325
b00000000000000000000000000011010 b&
#20448328
b00000000000000000000000000111011 b&
#20448347
b00000000000000000000000000111001 b&
#20448353
b00000000000000000100000000111001 b&
#20448365
03
#20592000
b0000000000100100 1
#20736000
b11111111111111111111111111111000 *
b01000 .
1'
0"
#21024000
1"
#21024306
b00000000010000000100000000111001 b&
#21024325
b00010011110000000111001011111001 b&
#21024328
b00010011110000000111101011111001 b&
#21024329
b00011111110010001111101011111001 b&
#21024331
b00011111110010011111101011111001 b&
#21024332
15
#21024350
b11111111111111111111111111111001 b&
#21024377
b11111111111111111111111111111000 b&
#21024391
b01001 f&
#21024400
b01000 f&
#21168000
b0000000000100101 1
#21312000
0"
1%
b00001 .
0'
#21600000
1"
#21600339
05
#21600360
13
#21600401
b01001 f&
#21600412
b00001 f&
#21744000
b0000000000100110 1
#21888000
0"
b00000000000000000000000000010011 (
b00000000000000000000000000010011 -
b00000000000000000000000000010011 *
0%
#22176000
1"
#22176227
03
#22176265
b00000000000000000000000000010011 e&
#22176325
b11111111111111111111111111111010 b&
#22176328
b11111111111111111111111111111011 b&
#22176346
b11111111101111111111111111111011 b&
#22176347
b11101100001111111100110100110011 b&
#22176348
b11100000001101110100110100110011 b&
#22176349
b00000000000000000000000000010011 `&
#22176371
b11100000001101100100110100110011 b&
#22176372
b00000000000000000100100000110011 b&
#22176377
b00000000000000000100000000010011 b&
#22176402
b00000000000000000000000000010011 b&
#22320000
b0000000000100111 1
#22464000
0"
b00110100001010100001000100010001 $
b00000000000000000100100000111000 *
#22752000
1"
#22752235
13
#22752325
b00000000000000000000000000011011 b&
#22752328
b00000000000000000000100000111011 b&
#22752347
b00000000000000000000100000111001 b&
#22752353
b00000000000000000100100000111001 b&
#22752365
03
#22752377
b00000000000000000100100000111000 b&
#22896000
b0000000000101000 1
#23040000
0"
b01001 .
1'
b00000000000000000000000000000111 *
#23328000
1"
#23328325
b00000000000000000100100000111110 b&
#23328328
b00000000000000000100100000111111 b&
#23328332
15
#23328347
b00000000000000000100000000010111 b&
#23328372
b00000000000000000000000000010111 b&
#23328377
b00000000000000000000000000000111 b&
#23328391
b01001 f&
#23472000
b0000000000101001 1
#23616000
0"
1%
b00001 .
0'
#23904000
1"
#23904339
05
#23904360
13
#23904412
b00001 f&
#24048000
b0000000000101010 1
#24192000
0"
b01010 .
0%
b00000000000000000000000000010100 *
b00000000000000000000000000010100 -
b00000000000000000000000000010100 (
b00000000000000000000000000000011 +
b00001 /
b01010 0
bxxxxxxxxxxxxxxxxxxxxxxxxxxxxxxxx ,
#24480000
1"
#24480227
03
#24480265
b00000000000000000000000000010111 e&
b00011 ^&
b01011 _&
#24480282
b00000000000000000000000000010100 e&
b00001 ^&
b01010 _&
#24480328
b00000000000000000000000000010111 b&
#24480347
b00000000000000000000000000010101 b&
#24480349
b00000000000000000000000000010111 `&
#24480352
b01011 f&
#24480367
b00000000000000000000000000010100 `&
b01010 f&
#24480377
b00000000000000000000000000010100 b&
#24480515
b00000000000000000000000000000001 c&
#24480518
b00000000000000000000000000000001 d&
#24480529
b00000000000000000000000000000000 d&
#24480555
b00000000000000000000000000000011 c&
#24480616
b00000000000000000000000000000xxx d&
#24480618
bxxxxxxxxxxxxxxxxxxxxxxxxxxxxxxxx d&
#24624000
b0000000000101011 1
#24768000
0"
b00000000010000010101100000101010 $
bxxxxxxxxxxxxxxxxxxxxxxxxxxxxxxxx )
b00000000000000000001000100100101 *
#25056000
1"
#25056235
13
#25056240
b00000000000000000000xxx00000x011 a&
#25056265
bxxxxxxxxxxxxxxxxxxxxxxxxxxxxxx11 a&
#25056282
bxxxxxxxxxxxxxxxxxxxxxxxxxxxxxxxx a&
#25056325
b00000000000000000000000000110100 b&
#25056328
b00000000000000000001000000110101 b&
#25056347
b00000000000000000001000000100101 b&
#25056350
b00000000000000000001000100100101 b&
#25056351
03
#25200000
b0000000000101100 1
#25344000
0"
1'
b00000000000000000001000100010011 *
#25632000
1"
#25632325
b00000000000000000001000100110101 b&
#25632328
b00000000000000000001000100110111 b&
#25632337
15
#25632347
b00000000000000000001000100110011 b&
#25632377
b00000000000000000001000100010011 b&
#25776000
b0000000000101101 1
#25920000
0"
1%
b00000000000000000001000100010011 ,
0'
#26208000
1"
#26208344
05
#26208367
13
#26208418
bxxxxxxxxxxxxxxxxxxxxxxxxxxxxxx1x d&
#26208421
bxxxxxxxxxxxxxxxxxxx1xxxxxxxxxx1x d&
#26208425
b0000xxxxxxxx000xxx01x0xx000xxx1x d&
#26208443
b0000xxxxxxxx000xxx01x0xx000xxx11 d&
#26208446
b0000xxxxxxxx000xxx01x0x10001xx11 d&
#26208450
b00000000000000000001000100010x11 d&
#26208466
b00000000000000000001000100010011 d&
#26352000
b0000000000101110 1
#26496000
0"
b00001 .
b00000000000000000000000000010101 -
b00000000000000000000000000010101 (
b00000000000000000000000000000101 +
b00010 /
b00001 0
b00000000000000000001000100010011 )
b00000000000000000000000000010101 *
0%
b00000000000000000000000000000011 ,
#26784000
1"
#26784227
03
#26784257
bxxxxxxxxxxxxxxxxxxxx000xxxxx0xxx a&
#26784265
b00000000000000000000000000010101 e&
b00011 ^&
b01011 _&
bxxxxxxxxxxxxxxxxxxx10001xxx10x11 a&
#26784282
b00010 ^&
b00001 _&
b00000000000000000001000100010011 a&
#26784325
b00000000000000000001000100010111 b&
#26784349
b00000000000000000000000000010101 `&
#26784352
b01011 f&
#26784372
b00000000000000000001000000010111 b&
#26784377
b00000000000000000000000000010101 b&
#26784392
b00001 f&
#26784497
b00000000000000000000000000000001 c&
#26784560
b00000000000000000000000000000011 d&
#26784603
b00000000000000000000000000000101 c&
#26928000
b0000000000101111 1
#27072000
b00000000000000000101100000111111 *
b00000000000000000000000000000011 )
b00000000010000010110100000101010 $
0"
#27360000
1"
#27360235
13
#27360282
b00000000000000000000000000000011 a&
#27360328
b00000000000000000001100000111111 b&
#27360353
b00000000000000000101100000111111 b&
#27360365
03
#27504000
b0000000000110000 1
#27648000
0"
b01011 .
1'
b00000000000000000000000000000000 *
#27936000
1"
#27936332
15
#27936347
b00000000000000000100100000101010 b&
#27936377
b00000000000000000100000000000000 b&
#27936391
b01011 f&
#27936402
b00000000000000000000000000000000 b&
#28080000
b0000000000110001 1
#28224000
0"
1%
b00001 .
0'
#28512000
1"
#28512339
05
#28512360
13
#28512412
b00001 f&
#28656000
b0000000000110010 1
#28800000
0"
b00000000000000000000000000010110 (
b00000000000000000000000000010110 -
b00000000000000000000000000010110 *
0%
#29088000
1"
#29088227
03
#29088265
b00000000000000000000000000010111 e&
#29088282
b00000000000000000000000000010110 e&
#29088325
b00000000000000000000000000010100 b&
#29088328
b00000000000000000000000000010110 b&
#29088349
b00000000000000000000000000010111 `&
#29088367
b00000000000000000000000000010110 `&
#29232000
b0000000000110011 1
#29376000
0"
b00101000010011100001000000010000 $
b00000000000000000110100001000000 *
#29664000
1"
#29664235
13
#29664325
b00000000000000000000000001010110 b&
#29664328
b00000000000000000010100001010110 b&
#29664347
b00000000000000000010100001010000 b&
#29664353
b00000000000000000110100001010000 b&
#29664365
03
#29664377
b00000000000000000110100001000000 b&
#29808000
b0000000000110100 1
#29952000
b00000000000000000000000000000000 *
1'
b01101 .
0"
#30240000
1"
#30240332
15
#30240347
b00000000000000000100000000000000 b&
#30240372
b00000000000000000000000000000000 b&
#30240391
b01101 f&
#30384000
b0000000000110101 1
#30528000
0"
1%
0'
b00001 .
#30816000
1"
#30816339
05
#30816360
13
#30816412
b00001 f&
#30960000
b0000000000110110 1
#31104000
0"
b00000000000000000000000000010111 -
b00000000000000000000000000010111 (
b01110 0
bxxxxxxxxxxxxxxxxxxxxxxxxxxxxxxxx ,
b00000000000000000000000000010111 *
0%
b01110 .
#31392000
1"
#31392227
03
#31392265
b00000000000000000000000000010111 e&
b01111 _&
#31392282
b01110 _&
#31392325
b00000000000000000000000000000111 b&
#31392328
b00000000000000000000000000010111 b&
#31392349
b00000000000000000000000000010111 `&
#31392352
b01111 f&
#31392367
b01110 f&
#31392615
bxxxxxxxxxxxxxxxxxxxxxxxxxxxxxxxx d&
#31536000
b0000000000110111 1
#31680000
0"
b00101000010011110000000000000001 $
bxxxxxxxxxxxxxxxxxxxxxxxxxxxxxxxx )
b00000000000000000001000000100111 *
#31968000
1"
#31968235
13
#31968240
b00000000000000000000xxx00000x011 a&
#31968265
bxxxxxxxxxxxxxxxxxxxxxxxxxxxxxx11 a&
#31968282
bxxxxxxxxxxxxxxxxxxxxxxxxxxxxxxxx a&
#31968325
b00000000000000000000000000110111 b&
#31968328
b00000000000000000001000000110111 b&
#31968347
b00000000000000000001000000100111 b&
#31968351
03
#32112000
b0000000000111000 1
#32256000
0"
1'
b00000000000000000000000000000001 *
#32544000
1"
#32544337
15
#32544347
b00000000000000000000000000000001 b&
#32688000
b0000000000111001 1
#32832000
0'
1%
b00000000000000000000000000000001 ,
0"
#33120000
1"
#33120344
05
#33120367
13
#33120411
b00x0xxxxxxxxxx0xxxxxxxxxxxxxxx0x d&
#33120436
b0000000000000000x0000000xxx0000x d&
#33120441
b0000000000000000x0000000xxx00001 d&
#33120484
b00000000000000000000000000000001 d&
#33264000
b0000000000111010 1
#33408000
0"
b00000000000000000000000000011000 *
b00000000000000000000000000000001 )
b01111 .
b01111 0
b00000000000000000000000000011000 (
b00000000000000000000000000011000 -
0%
bxxxxxxxxxxxxxxxxxxxxxxxxxxxxxxxx ,
#33696000
1"
#33696227
03
#33696257
bxxxxxxxxxxxxxxxxxxxx000xxxxx0xxx a&
#33696265
bxxxxxxxxxxxxxxxxxxxx000xxxxx0xx1 a&
b01111 _&
b00000000000000000000000000011111 e&
#33696282
b00000000000000000000000000000001 a&
b00000000000000000000000000011000 e&
#33696325
b00000000000000000000000000011001 b&
#33696349
b00000000000000000000000000011111 `&
#33696354
b01111 f&
#33696367
b00000000000000000000000000011000 `&
#33696377
b00000000000000000000000000011000 b&
#33696657
bxxxxxxxxxxxxxxxxxxxxxxxxxxxxxxxx d&
#33840000
b0000000000111011 1
#33984000
0"
b00000000000000011000000100000000 $
b00000000000000000000000000011001 *
bxxxxxxxxxxxxxxxxxxxxxxxxxxxxxxxx )
#34272000
1"
#34272235
13
#34272240
b00000000000000000000xxx00000x001 a&
#34272265
bxxxxxxxxxxxxxxxxxxxxxxxxxxxxxxx1 a&
#34272282
bxxxxxxxxxxxxxxxxxxxxxxxxxxxxxxxx a&
#34272328
b00000000000000000000000000011001 b&
#34272351
03
#34416000
b0000000000111100 1
#34560000
0"
1'
b00000000000000000000000000000000 *
#34848000
1"
#34848337
15
#34848347
b00000000000000000000000000000000 b&
#34992000
b0000000000111101 1
#35136000
0"
1%
b00000000000000000000000000000000 ,
0'
#35424000
1"
#35424344
05
#35424367
13
#35424453
bxxxxxxxxxxxxxxxxxxxxxxxx0xxxxxxx d&
#35424478
b00000x000000000xxx0xxxxx0xxxxxxx d&
#35424526
b00000000000000000000000000000000 d&
#35568000
b0000000000111110 1
#35712000
b00000000000000000000000000000011 ,
0%
b00000000000000000000000000011001 *
b00000000000000000000000000000000 )
b00000000000000000000000000011001 -
b00000000000000000000000000011001 (
b00001 0
b00001 .
b00000000000000000000000000000000 +
b00000 /
0"
#36000000
1"
#36000227
03
#36000257
bxxxxxxxxxxxxxxxxxxxx000xxxxx0xxx a&
#36000265
b00000000000000000000000000011001 e&
#36000282
b00000000000000000000000000000000 a&
b00000 ^&
b00001 _&
#36000325
b00000000000000000000000000011001 b&
#36000349
b00000000000000000000000000011001 `&
#36000367
b00001 f&
#36000515
b00000000000000000000000000000001 c&
#36000530
b00000000000000000000000000000000 c&
#36000589
b00000000000000000000000000000011 d&
#36144000
b0000000000111111 1
#36288000
0"
b00000000000100001000100100000010 $
b00000000000000001000000100011001 *
b00000000000000000000000000000011 )
#36576000
1"
#36576235
13
#36576265
b00000000000000000000000000000011 a&
#36576331
b00000000000000001000000000011001 b&
#36576353
b00000000000000001000000100011001 b&
#36576365
03
#36720000
b0000000001000000 1
#36864000
0"
1'
b10000 .
b00000000000000000000000000110000 *
#37152000
1"
#37152325
b00000000000000001000000100111001 b&
#37152332
15
#37152347
b00000000000000001000000100110000 b&
#37152371
b00000000000000000000000100110000 b&
#37152385
b10001 f&
#37152400
b10000 f&
#37152402
b00000000000000000000000000110000 b&
