Results/90nm/vcs_post_par/inter.vcd
$timescale
 1ps
$end

$scope module mips_processor_tb $end
$var reg        1 "    clk $end
$var reg        1 #    reset $end
$var reg       32 $    memdata [31:0] $end
$var reg        1 3    memread $end
$var reg        1 4    memwrite $end
$var reg        1 5    regwrite $end
$var reg       32 `&   addr [31:0] $end
$var reg       32 a&   writedata [31:0] $end
$var reg       32 b&   wrData [31:0] $end
$var reg       32 c&   Ain [31:0] $end
$var reg       32 d&   Bin [31:0] $end
$var reg       32 e&   pcout [31:0] $end
$var reg        5 f&   wrAddr [4:0] $end
$var reg        5 g&   rdAddr1 [4:0] $end
$var reg        5 h&   rdAddr2 [4:0] $end
$var reg        1 %    memread_exp $end
$var reg        1 &    memwrite_exp $end
$var reg        1 '    regwrite_exp $end
$var reg       32 (    addr_exp [31:0] $end
$var reg       32 )    writedata_exp [31:0] $end
$var reg       32 *    wrData_exp [31:0] $end
$var reg       32 +    Ain_exp [31:0] $end
$var reg       32 ,    Bin_exp [31:0] $end
$var reg       32 -    pcout_exp [31:0] $end
$var reg        5 .    wrAddr_exp [4:0] $end
$var reg        5 /    rdAddr1_exp [4:0] $end
$var reg        5 0    rdAddr2_exp [4:0] $end
$var reg       16 1    vectornum [15:0] $end
$var reg       16 2    errors [15:0] $end
$upscope $end
$enddefinitions $end
#0
$dumpvars
b00000000000000000000000000000000 +
b00000000000000000000000000000000 ,
b00000000000000000000000000000000 -
0"
b00000 .
1#
b00000 /
bxxxxxxxxxxxxxxxxxxxxxxxxxxxxxxxx $
b00000 0
1%
b0000000000000000 1
0&
b0000000000000000 2
0'
b00000000000000000000000000000000 (
x3
b00000000000000000000000000000000 )
x4
b00000000000000000000000000000000 *
x5
bxxxxxxxxxxxxxxxxxxxxxxxxxxxxxxxx d&
bxxxxxxxxxxxxxxxxxxxxxxxxxxxxxxxx c&
bxxxxxxxxxxxxxxxxxxxxxxxxxxxxxxxx b&
bxxxxxxxxxxxxxxxxxxxxxxxxxxxxxxxx a&
bxxxxxxxxxxxxxxxxxxxxxxxxxxxxxxxx `&
bxxxxx h&
bxxxxx g&
bxxxxx f&
bxxxxxxxxxxxxxxxxxxxxxxxxxxxxxxxx e&
$end
#288000
1"
#288222
04
#288226
b000000x00xxxxxxxxxxxxxxxxxxxxxxx a&
#288227
b00000000000000000000000000000000 e&
b00000 g&
b00000 h&
b000000x00x0000000000000000000000 a&
#288268
05
#288293
bx0000 f&
b0x0x0000x000x0x0x0x000000x0x0000 b&
#288298
b00000000000000000000000000000000 `&
#288317
b00000000000000000000000000000000 b&
#288322
b00000 f&
#288382
13
#288447
bxxxxxxxxxxxxxxx0000000xxxxxxxxx0 c&
bxxxxxxxxxxxxxxx0000000xxxxxxxxx0 d&
#288478
b00000000000000000000000000000000 a&
#288492
b00000000000000000000000000000000 c&
b00000000000000000000000000000000 d&
#432000
b0000000000000001 1
#576000
0"
b00000000000000000000000000000001 -
0#
b00001000000000000000000000001010 $
0%
b00000000000000000000000000000001 (
b00000000000000000000000000000001 *
#864000
1"
#864210
b00000000000000000000000000000001 e&
#864274
b00000000000000000000000000000001 b&
#864294
b00000000000000000000000000000001 `&
#864295
03
#1008000
b0000000000000010 1
#1152000
0"
b00000000000000000000000000000000 $
b00000000000000000000000000001011 *
#1440000
1"
#1440276
b00000000000000000000000000001011 b&
#1440308
13
#1440355
03
#1584000
b0000000000000011 1
#1728000
0"
b00000000000000000000000000001010 -
1%
b00000000000000000000000000001010 (
b00000000000000000000000000000010 *
#2016000
1"
#2016210
b00000000000000000000000000001011 e&
#2016227
b00000000000000000000000000001010 e&
#2016293
b00000000000000000000000000000010 b&
#2016294
b00000000000000000000000000001011 `&
#2016312
b00000000000000000000000000001010 `&
#2016382
13
#2160000
b0000000000000100 1
#2304000
0"
bxxxxxxxxxxxxxxxxxxxxxxxxxxxxxxxx ,
b00001 .
b00001 0
b10001100000000010000000000011111 $
b00000000000000000000000000001011 -
0%
b00000000000000000000000000001011 (
b00000000000000000000000000001011 *
#2592000
1"
#2592210
b00001 h&
b00000000000000000000000000001011 e&
#2592276
b00000000000000000000000000001011 b&
#2592294
b00000000000000000000000000001011 `&
#2592295
03
#2592299
b00001 f&
#2592336
b000000000000000xxxxxxx000000000x d&
#2592384
bxxxxxxxxxxxxxxxxxxxxxxxxxxxxxxxx d&
#2736000
b0000000000000101 1
#2880000
0"
bxxxxxxxxxxxxxxxxxxxxxxxxxxxxxxxx )
b10001100000000100000000000100000 $
b00000000000000000000000000101010 *
#3168000
1"
#3168209
bxxxxxx0xx00000000000000000000000 a&
#3168210
bxxxxxx0xx0xxxxxxxxxxxxxxxxxxxxxx a&
#3168276
b00000000000000000000000000101011 b&
#3168293
b00000000000000000000000000101010 b&
#3168310
13
#3168385
03
#3168447
bxxxxxxxxxxxxxxxxxxxxxxxxxxxxxxxx a&
#3312000
b0000000000000110 1
#3456000
b00000000000000000000000000011111 *
b00000000000000000000000000011111 (
1%
0"
#3744000
1"
#3744274
b00000000000000000000000000101111 b&
#3744291
13
#3744295
b00000000000000000000000000111111 b&
#3744316
b00000000000000000000000000011111 b&
#3744317
b00000000000000000000000000011111 `&
#3888000
b0000000000000111 1
#4032000
0"
b00000000000000000000000000000011 $
1'
b00000000000000000000000000000011 *
#4320000
1"
#4320269
15
#4320427
b00000000000000000000000000011011 b&
#4320456
b00000000000000000000000000010011 b&
#4320480
b00000000000000000000000000000011 b&
#4464000
b0000000000001000 1
#4608000
0"
b00000000000000000000000000000011 ,
b00000000000000000000000000001011 (
0'
b00000000000000000000000000011111 *
#4896000
1"
#4896254
05
#4896269
03
#4896354
b00000000000000000000000000001011 `&
#4896392
13
#4896400
b00000000000000000000000000000111 b&
#4896448
b00000000000000000000000000001111 b&
#4896468
b00000000000000000000000000011111 b&
#4896523
bxxxxxxxxxxxxxxxxxxxxxxxxxxxxxx11 d&
#4896525
b00000000000000000000000000000011 d&
#5040000
b0000000000001001 1
#5184000
0"
b00000000000000000000000000000011 )
b00000000000000000000000000001100 -
b00010 0
b00010 .
0%
b10001100000000100000000000100000 $
bxxxxxxxxxxxxxxxxxxxxxxxxxxxxxxxx ,
b00000000000000000000000000001100 (
b00000000000000000000000000001100 *
#5472000
1"
#5472210
bxxxxxxxxxxxxxxxxxxxxxxxxxxxxxx11 a&
b00011 h&
b00000000000000000000000000001111 e&
#5472226
b000000x00xxxxxxxxxxxxxxxxxxxxx11 a&
#5472227
b000000x00x0000000000000000000011 a&
b00000000000000000000000000001100 e&
b00010 h&
#5472293
b00000000000000000000000000011100 b&
#5472294
b00000000000000000000000000001111 `&
#5472295
03
#5472299
b00011 f&
#5472312
b00010 f&
b00000000000000000000000000001100 `&
#5472317
b00000000000000000000000000001100 b&
#5472478
b00000000000000000000000000000011 a&
#5472756
bx0000000000000000000000000000011 d&
#5472760
bxxxxxxxxxxxxxxxxxxxxxxxxxxxxxx11 d&
#5472895
bxxxxxxxxxxxxxxxxxxxxxxxxxxxxxxxx d&
#5616000
b0000000000001010 1
#5760000
0"
bxxxxxxxxxxxxxxxxxxxxxxxxxxxxxxxx )
b00000000001000100001100000100000 $
b00000000000000000000000000101100 *
#6048000
1"
#6048209
bxxxxxx0xx00000000000000000000011 a&
#6048210
bxxxxxx0xx0xxxxxxxxxxxxxxxxxxxx11 a&
#6048227
bxxxxxx0xx0xxxxxxxxxxxxxxxxxxxxxx a&
#6048276
b00000000000000000000000000101100 b&
#6048310
13
#6048385
03
#6048447
bxxxxxxxxxxxxxxxxxxxxxxxxxxxxxxxx a&
#6192000
b0000000000001011 1
#6336000
b00000000000000000000000000100000 *
b00000000000000000000000000100000 (
1%
0"
#6624000
1"
#6624291
13
#6624293
b00000000000000000000000000100000 b&
#6624317
b00000000000000000000000000101100 `&
#6624327
b00000000000000000000000000100000 `&
#6768000
b0000000000001100 1
#6912000
0"
b00000000000000000000000000000101 $
1'
b00000000000000000000000000000101 *
#7200000
1"
#7200269
15
#7200366
b00000000000000000000000000100100 b&
#7200414
b00000000000000000000000000100101 b&
#7200456
b00000000000000000000000000000101 b&
#7344000
b0000000000001101 1
#7488000
0"
b00000000000000000000000000000101 ,
b00000000000000000000000000001100 (
0'
b00000000000000000000000000100000 *
#7776000
1"
#7776254
05
#7776269
03
#7776331
b00000000000000000000000000101100 `&
#7776354
b00000000000000000000000000001100 `&
#7776362
b00000000000000000000000000000001 b&
#7776392
13
#7776407
b00000000000000000000000000000000 b&
#7776448
b00000000000000000000000000100000 b&
#7776546
b00000000000000000000000000000xxx d&
#7776558
b000000000000000000000000000001xx d&
#7776560
b000000000000000000000000000001x1 d&
#7776567
b00000000000000000000000000000101 d&
#7920000
b0000000000001110 1
#8064000
0"
b00000000000000000000000000000101 )
b00000000000000000000000000001101 -
b00000000000000000000000000000011 +
b00001 /
0%
b00000000001000100001100000100000 $
b00000000000000000000000000001101 (
b00000000000000000000000000001101 *
#8352000
1"
#8352210
bxxxxxxxxxxxxxxxxxxxxxxxxxxxxx1x1 a&
b00000000000000000000000000001101 e&
b00001 g&
#8352226
b000000x00xxxxxxxxxxxxxxxxxxxx1x1 a&
#8352227
b000000x00x0000000000000000000101 a&
#8352274
b00000000000000000000000000101000 b&
#8352276
b00000000000000000000000000101101 b&
#8352294
b00000000000000000000000000001101 `&
#8352295
03
#8352316
b00000000000000000000000000001101 b&
#8352336
b000000000000000xxxxxxx000000000x c&
#8352384
bxxxxxxxxxxxxxxxxxxxxxxxxxxxxxxxx c&
#8352478
b00000000000000000000000000000101 a&
#8352606
b00000xxxxxxxxxxxxxxxxxxxxxxxxxxx c&
#8352651
b00000x00000000000000xxxxxx0000xx c&
#8352681
b00000x00000000000000xxxxxx000000 c&
#8352903
b00000x00000000000000000000000011 c&
#8352924
b00000000000000000000000000000011 c&
#8496000
b0000000000001111 1
#8640000
0"
b00100000010001000001000000010000 $
b00000000000000000001100000101101 *
#8928000
1"
#8928276
b00000000000000000001100000101101 b&
#8928308
13
#8928355
03
#9072000
b0000000000010000 1
#9216000
b00000000000000000000000000001000 *
1'
b00011 .
0"
#9504000
1"
#9504248
15
#9504293
b00000000000000000001000000001000 b&
#9504313
b00011 f&
#9504316
b00000000000000000000000000001000 b&
#9648000
b0000000000010001 1
#9792000
0"
1%
0'
b00010 .
#10080000
1"
#10080268
05
#10080332
b00010 f&
#10080382
13
#10224000
b0000000000010010 1
#10368000
0"
b00000000000000000000000000001110 (
b00010 /
b00000000000000000000000000000101 +
b00000000000000000000000000001110 -
bxxxxxxxxxxxxxxxxxxxxxxxxxxxxxxxx ,
b00100 0
b00000000000000000000000000001110 *
0%
b00100 .
#10656000
1"
#10656210
b00110 h&
b00011 g&
b00000000000000000000000000001111 e&
#10656227
b00010 g&
b00000000000000000000000000001110 e&
b00100 h&
#10656274
b00000000000000000000000000001110 b&
#10656294
b00000000000000000000000000001111 `&
#10656295
03
#10656299
b00110 f&
#10656312
b00000000000000000000000000001110 `&
#10656337
b00100 f&
#10656691
b0000000000000000000000000000010x d&
#10656707
bx000000000000000000000000000010x d&
#10656709
bx0000000000000000000000000000x0x d&
#10656711
bxxxxxxxx000000xxxxxx000000xxxxxx d&
#10656760
b00000000000000000000000000000111 c&
#10656894
b00000000000000000000000000000101 c&
#10656949
bxxxxxxxxxxxxxxxxxxxxxxxxxxxxxxxx d&
#10800000
b0000000000010011 1
#10944000
0"
b00000000010000010010100000100010 $
bxxxxxxxxxxxxxxxxxxxxxxxxxxxxxxxx )
b00000000000000000001000000011110 *
#11232000
1"
#11232209
bxxxxxx0xx00000000000000000000101 a&
#11232210
bxxxxxx0xx0xxxxxxxxxxxxxxxxxxx1x1 a&
#11232227
bxxxxxx0xx0xxxxxxxxxxxxxxxxxxxxxx a&
#11232276
b00000000000000000001000000001110 b&
#11232298
b00000000000000000001000000011110 b&
#11232447
bxxxxxxxxxxxxxxxxxxxxxxxxxxxxxxxx a&
#11376000
b0000000000010100 1
#11520000
0"
1'
b00000000000000000001000000010101 *
#11808000
1"
#11808241
15
#11808274
b00000000000000000001000000011111 b&
#11808293
b00000000000000000001000000010111 b&
#11808316
b00000000000000000001000000010101 b&
#11952000
b0000000000010101 1
#12096000
0'
1%
b00000000000000000001000000010101 ,
0"
#12384000
1"
#12384254
05
#12384340
13
#12384559
bxxxxxxxxxxxxxxxxxxx1xxxxxxx1x1x1 d&
#12384568
b00000000000000000001000000010101 d&
#12528000
b0000000000010110 1
#12672000
0"
b00000000000000000000000000001111 *
b00000000000000000001000000010101 )
b00001 .
b00001 0
b00000000000000000000000000001111 -
b00000000000000000000000000001111 (
0%
b00000000000000000000000000000011 ,
#12960000
1"
#12960210
bxxxxxxxxxxxxxxxxxxx1xxxxxxx1x1x1 a&
b00000000000000000000000000001111 e&
b00101 h&
#12960226
b000000x00xxxxxxxxxx1xxxxxxx1x1x1 a&
#12960227
b000000x00x0000000001000000010101 a&
b00001 h&
#12960274
b00000000000000000001000000011101 b&
#12960276
b00000000000000000001000000011111 b&
#12960293
b00000000000000000000000000011111 b&
#12960294
b00000000000000000000000000001111 `&
#12960295
03
#12960297
b00101 f&
#12960317
b00000000000000000000000000001111 b&
#12960337
b00001 f&
#12960478
b00000000000000000001000000010101 a&
#12960677
b00000000000000000000000000000000 d&
#12960902
b00000000000000000000000000000011 d&
#13104000
b0000000000010111 1
#13248000
0"
b00000000010000010011000000100100 $
b00000000000000000010100000110001 *
b00000000000000000000000000000011 )
#13536000
1"
#13536210
b00000000000000000001000000010111 a&
#13536227
b00000000000000000000000000000011 a&
#13536276
b00000000000000000000100000101111 b&
#13536293
b00000000000000000000100000100101 b&
#13536295
b00000000000000000000100000110101 b&
#13536298
b00000000000000000010100000110101 b&
#13536308
13
#13536316
b00000000000000000010100000110001 b&
#13536355
03
#13680000
b0000000000011000 1
#13824000
0"
1'
b00101 .
b00000000000000000000000000000010 *
#14112000
1"
#14112248
15
#14112274
b00000000000000000010100000110011 b&
#14112293
b00000000000000000010000000110010 b&
#14112313
b00101 f&
#14112316
b00000000000000000010000000010010 b&
#14112317
b00000000000000000010000000000010 b&
#14112347
b00000000000000000000000000000010 b&
#14256000
b0000000000011001 1
#14400000
0"
1%
0'
b00001 .
#14688000
1"
#14688268
05
#14688332
b00001 f&
#14688382
13
#14832000
b0000000000011010 1
#14976000
0%
b00000000000000000000000000010000 *
b00000000000000000000000000010000 (
b00000000000000000000000000010000 -
0"
#15264000
1"
#15264210
b00000000000000000000000000011111 e&
#15264227
b00000000000000000000000000010000 e&
#15264293
b00000000000000000000000000000000 b&
#15264294
b00000000000000000000000000011111 `&
#15264295
03
b00000000000000000000000000010000 b&
#15264312
b00000000000000000000000000010000 `&
#15408000
b0000000000011011 1
#15552000
0"
b00110000001001110000000000000001 $
b00000000000000000011000000110100 *
#15840000
1"
#15840276
b00000000000000000001000000110100 b&
#15840298
b00000000000000000011000000110100 b&
#15840308
13
#15840355
03
#15984000
b0000000000011100 1
#16128000
0"
b00110 .
1'
b00000000000000000000000000000001 *
#16416000
1"
#16416248
15
#16416276
b00000000000000000011000000110101 b&
#16416293
b00000000000000000010000000010001 b&
#16416313
b00111 f&
#16416317
b00000000000000000000000000000001 b&
#16416365
b00110 f&
#16560000
b0000000000011101 1
#16704000
0"
1%
b00001 .
0'
#16992000
1"
#16992268
05
#16992332
b00000 f&
#16992366
b00001 f&
#16992382
13
#17136000
b0000000000011110 1
#17280000
0"
bxxxxxxxxxxxxxxxxxxxxxxxxxxxxxxxx ,
b00111 0
b00001 /
b00000000000000000000000000000011 +
b00000000000000000000000000010001 (
b00000000000000000000000000010001 -
b00000000000000000000000000010001 *
0%
b00111 .
#17568000
1"
#17568210
b00111 h&
b00011 g&
b00000000000000000000000000010001 e&
#17568227
b00001 g&
#17568294
b00000000000000000000000000010001 `&
#17568295
03
b00000000000000000000000000010001 b&
#17568297
b00111 f&
#17568704
b00000000000000000000000000000001 c&
#17568711
b000000000000000xxx00000000000011 d&
#17568725
b00000000000000000000000000000000 c&
#17568755
bx00000000000000xxx00000000000011 d&
#17568759
bxxxxxxxxxxxxxxxxxxx0xxxxxxx0x011 d&
#17568761
bxxxxxxxxxxxxxxxxxxxxxxxxxxxxxx11 d&
#17568881
bxxxxxxxxxxxxxxxxxxxxxxxxxxxxxxxx d&
#17568914
b00000000000000000000000000000011 c&
#17712000
b0000000000011111 1
#17856000
b00000000000000000000000000010010 *
b00000000010000010100000000100111 $
bxxxxxxxxxxxxxxxxxxxxxxxxxxxxxxxx )
0"
#18144000
1"
#18144209
bxxxxxx0xx00000000000000000000011 a&
#18144210
bxxxxxx0xx0xxxxxxxxxxxxxxxxxxxx11 a&
#18144227
bxxxxxx0xx0xxxxxxxxxxxxxxxxxxxxxx a&
#18144276
b00000000000000000000000000010011 b&
#18144316
b00000000000000000000000000010010 b&
#18144447
bxxxxxxxxxxxxxxxxxxxxxxxxxxxxxxxx a&
#18288000
b0000000000100000 1
#18432000
0"
1'
b00000000000000000000000000000001 *
#18720000
1"
#18720241
15
#18720276
b00000000000000000000000000010011 b&
#18720316
b00000000000000000000000000010001 b&
#18720317
b00000000000000000000000000000001 b&
#18864000
b0000000000100001 1
#19008000
0"
1%
b00000000000000000000000000000001 ,
0'
#19296000
1"
#19296254
05
#19296340
13
#19296591
b0000000000000000000x0000000x0xxx d&
#19296597
b0000000000000000000x0000000x0xx1 d&
#19296606
b000000000000000000000000000000x1 d&
#19296612
b00000000000000000000000000000001 d&
#19440000
b0000000000100010 1
#19584000
0"
b00001 .
b00000000000000000000000000010010 -
b00000000000000000000000000010010 (
b00000000000000000000000000000101 +
b00010 /
b00001 0
b00000000000000000000000000000001 )
b00000000000000000000000000010010 *
0%
b00000000000000000000000000000011 ,
#19872000
1"
#19872210
b00011 g&
b00000000000000000000000000010011 e&
bxxxxxxxxxxxxxxxxxxxxxxxxxxxxxxx1 a&
#19872226
b000000x00xxxxxxxxxxxxxxxxxxxxxx1 a&
#19872227
b00000000000000000000000000010010 e&
b00001 h&
b00010 g&
b000000x00x0000000000000000000001 a&
#19872276
b00000000000000000000000000000011 b&
#19872294
b00000000000000000000000000010011 `&
#19872295
03
b00000000000000000000000000010011 b&
#19872312
b00001 f&
b00000000000000000000000000010010 `&
#19872316
b00000000000000000000000000010010 b&
#19872478
b00000000000000000000000000000001 a&
#19872760
b00000000000000000000000000000111 c&
#19872765
b00000000000000000000000000000000 d&
#19872894
b00000000000000000000000000000101 c&
#19872916
b00000000000000000000000000000011 d&
#20016000
b0000000000100011 1
#20160000
0"
b00000000010000010100100000100101 $
b00000000000000000000000000000011 )
b00000000000000000100000000111001 *
#20448000
1"
#20448210
b00000000000000000000000000000011 a&
#20448274
b00000000000000000000000000011010 b&
#20448276
b00000000000000000100000000111011 b&
#20448293
b00000000000000000100000000111001 b&
#20448308
13
#20448355
03
#20592000
b0000000000100100 1
#20736000
b11111111111111111111111111111000 *
b01000 .
1'
0"
#21024000
1"
#21024248
15
#21024274
b10101111001101000101011110111001 b&
#21024276
b10101111011101010101111110111001 b&
#21024295
b11111111111111111111111111111001 b&
#21024313
b01001 f&
#21024316
b11111111111111111111111111111000 b&
#21024365
b01000 f&
#21168000
b0000000000100101 1
#21312000
0"
1%
b00001 .
0'
#21600000
1"
#21600268
05
#21600332
b00000 f&
#21600366
b00001 f&
#21600382
13
#21744000
b0000000000100110 1
#21888000
0"
b00000000000000000000000000010011 (
b00000000000000000000000000010011 -
b00000000000000000000000000010011 *
0%
#22176000
1"
#22176210
b00000000000000000000000000010011 e&
#22176274
b11111111111111111111111111111010 b&
#22176276
b11111111111111111111111111111011 b&
#22176293
b01010000110010111110100001110011 b&
#22176294
b00000000000000000000000000010011 `&
#22176295
03
#22176316
b01010000100010101010000001010011 b&
#22176317
b00000000000000000000000000010011 b&
#22320000
b0000000000100111 1
#22464000
0"
b00110100001010100001000100010001 $
b00000000000000000100100000111000 *
#22752000
1"
#22752274
b00000000000000000000000000011011 b&
#22752276
b00000000000000000100100000111011 b&
#22752293
b00000000000000000100100000111001 b&
#22752308
13
#22752316
b00000000000000000100100000111000 b&
#22752355
03
#22896000
b0000000000101000 1
#23040000
0"
b01001 .
1'
b00000000000000000000000000000111 *
#23328000
1"
#23328248
15
#23328274
b00000000000000000100100000111110 b&
#23328276
b00000000000000000100100000111111 b&
#23328293
b00000000000000000000000000010111 b&
#23328313
b01001 f&
#23328347
b00000000000000000000000000000111 b&
#23472000
b0000000000101001 1
#23616000
0"
1%
b00001 .
0'
#23904000
1"
#23904268
05
#23904332
b00001 f&
#23904382
13
#24048000
b0000000000101010 1
#24192000
0"
b01010 .
0%
b00000000000000000000000000010100 *
b00000000000000000000000000010100 -
b00000000000000000000000000010100 (
b00000000000000000000000000000011 +
b00001 /
b01010 0
bxxxxxxxxxxxxxxxxxxxxxxxxxxxxxxxx ,
#24480000
1"
#24480210
b00000000000000000000000000010111 e&
b01011 h&
b00011 g&
#24480227
b00000000000000000000000000010100 e&
b01010 h&
b00001 g&
#24480293
b00000000000000000000000000000101 b&
#24480294
b00000000000000000000000000010111 `&
#24480295
03
#24480297
b01011 f&
#24480298
b00000000000000000000000000010101 b&
#24480312
b00000000000000000000000000010100 `&
b01010 f&
#24480316
b00000000000000000000000000010100 b&
#24480704
b00000000000000000000000000000001 c&
#24480725
b00000000000000000000000000000000 c&
#24480781
bx0000000000000000000000000000011 d&
#24480785
bxxxxxxxxxxxxxxxxxxxxxxxxxxxxxx11 d&
#24480889
bxxxxxxxxxxxxxxxxxxxxxxxxxxxxxxxx d&
#24480914
b00000000000000000000000000000011 c&
#24624000
b0000000000101011 1
#24768000
0"
b00000000010000010101100000101010 $
bxxxxxxxxxxxxxxxxxxxxxxxxxxxxxxxx )
b00000000000000000001000100100101 *
#25056000
1"
#25056209
bxxxxxx0xx00000000000000000000011 a&
#25056210
bxxxxxx0xx0xxxxxxxxxxxxxxxxxxxx11 a&
#25056227
bxxxxxx0xx0xxxxxxxxxxxxxxxxxxxxxx a&
#25056276
b00000000000000000001000100110101 b&
#25056317
b00000000000000000001000100100101 b&
#25056447
bxxxxxxxxxxxxxxxxxxxxxxxxxxxxxxxx a&
#25200000
b0000000000101100 1
#25344000
0"
1'
b00000000000000000001000100010011 *
#25632000
1"
#25632241
15
#25632276
b00000000000000000001000100100111 b&
#25632293
b00000000000000000001000100100011 b&
#25632295
b00000000000000000001000100110011 b&
#25632316
b00000000000000000001000100010011 b&
#25776000
b0000000000101101 1
#25920000
0"
1%
b00000000000000000001000100010011 ,
0'
#26208000
1"
#26208254
05
#26208340
13
#26208583
bxxxxxxxxxxxxxxxxxxx1xxx1xxx1xx11 d&
#26208605
b00000000000000000001000100010x11 d&
#26208611
b00000000000000000001000100010011 d&
#26352000
b0000000000101110 1
#26496000
0"
b00001 .
b00000000000000000000000000010101 -
b00000000000000000000000000010101 (
b00000000000000000000000000000101 +
b00010 /
b00001 0
b00000000000000000001000100010011 )
b00000000000000000000000000010101 *
0%
b00000000000000000000000000000011 ,
#26784000
1"
#26784210
b00000000000000000000000000010101 e&
b01011 h&
b00011 g&
bxxxxxxxxxxxxxxxxxxx1xxx1xxx1xx11 a&
#26784226
b000000x00xxxxxxxxxx1xxx1xxx1xx11 a&
#26784227
b00001 h&
b00010 g&
b000000x00x0000000001000100010011 a&
#26784274
b00000000000000000001000100010111 b&
#26784293
b00000000000000000001000000010111 b&
#26784294
b00000000000000000000000000010101 `&
#26784295
03
#26784297
b01011 f&
#26784316
b00000000000000000000000000010101 b&
#26784337
b00001 f&
#26784478
b00000000000000000001000100010011 a&
#26784755
b00000000000000000000000000000011 d&
#26784760
b00000000000000000000000000000111 c&
#26784761
b00000000000000000000000000000000 d&
#26784894
b00000000000000000000000000000101 c&
#26784909
b00000000000000000000000000000011 d&
#26928000
b0000000000101111 1
#27072000
b00000000000000000101100000111111 *
b00000000000000000000000000000011 )
b00000000010000010110100000101010 $
0"
#27360000
1"
#27360227
b00000000000000000000000000000011 a&
#27360276
b00000000000000000101100000111111 b&
#27360308
13
#27360355
03
#27504000
b0000000000110000 1
#27648000
0"
b01011 .
1'
b00000000000000000000000000000000 *
#27936000
1"
#27936248
15
#27936293
b00000000000000000100100000111010 b&
#27936313
b01011 f&
#27936316
b00000000000000000000000000010000 b&
#27936317
b00000000000000000000000000000000 b&
#28080000
b0000000000110001 1
#28224000
0"
1%
b00001 .
0'
#28512000
1"
#28512268
05
#28512332
b00001 f&
#28512382
13
#28656000
b0000000000110010 1
#28800000
0"
b00000000000000000000000000010110 (
b00000000000000000000000000010110 -
b00000000000000000000000000010110 *
0%
#29088000
1"
#29088210
b00000000000000000000000000010111 e&
#29088227
b00000000000000000000000000010110 e&
#29088274
b00000000000000000000000000000100 b&
#29088276
b00000000000000000000000000000110 b&
#29088294
b00000000000000000000000000010111 `&
#29088295
03
b00000000000000000000000000010110 b&
#29088312
b00000000000000000000000000010110 `&
#29232000
b0000000000110011 1
#29376000
0"
b00101000010011100001000000010000 $
b00000000000000000110100001000000 *
#29664000
1"
#29664276
b00000000000000000100100000010110 b&
#29664293
b00000000000000000100100000010000 b&
#29664295
b00000000000000000100100001010000 b&
#29664298
b00000000000000000110100001010000 b&
#29664308
13
#29664347
b00000000000000000110100001000000 b&
#29664355
03
#29808000
b0000000000110100 1
#29952000
b00000000000000000000000000000000 *
1'
b01101 .
0"
#30240000
1"
#30240248
15
#30240293
b00000000000000000010000001000000 b&
#30240313
b01101 f&
#30240317
b00000000000000000000000000000000 b&
#30384000
b0000000000110101 1
#30528000
0"
1%
0'
b00001 .
#30816000
1"
#30816268
05
#30816332
b00001 f&
#30816382
13
#30960000
b0000000000110110 1
#31104000
0"
b00000000000000000000000000010111 -
b00000000000000000000000000010111 (
b01110 0
bxxxxxxxxxxxxxxxxxxxxxxxxxxxxxxxx ,
b00000000000000000000000000010111 *
0%
b01110 .
#31392000
1"
#31392210
b00000000000000000000000000010111 e&
b01111 h&
#31392227
b01110 h&
#31392274
b00000000000000000000000000000111 b&
#31392294
b00000000000000000000000000010111 `&
#31392295
03
#31392297
b01111 f&
#31392298
b00000000000000000000000000010111 b&
#31392312
b01110 f&
#31392776
bx0000000000000000000000000000011 d&
#31392780
bxxxxxxxxxxxxxxxxxxxxxxxxxxxxxx11 d&
#31392881
bxxxxxxxxxxxxxxxxxxxxxxxxxxxxxxxx d&
#31536000
b0000000000110111 1
#31680000
0"
b00101000010011110000000000000001 $
bxxxxxxxxxxxxxxxxxxxxxxxxxxxxxxxx )
b00000000000000000001000000100111 *
#31968000
1"
#31968209
bxxxxxx0xx00000000000000000000011 a&
#31968210
bxxxxxx0xx0xxxxxxxxxxxxxxxxxxxx11 a&
#31968227
bxxxxxx0xx0xxxxxxxxxxxxxxxxxxxxxx a&
#31968274
b00000000000000000000000000110111 b&
#31968276
b00000000000000000001000000110111 b&
#31968317
b00000000000000000001000000100111 b&
#31968447
bxxxxxxxxxxxxxxxxxxxxxxxxxxxxxxxx a&
#32112000
b0000000000111000 1
#32256000
0"
1'
b00000000000000000000000000000001 *
#32544000
1"
#32544241
15
#32544293
b00000000000000000000000000000001 b&
#32688000
b0000000000111001 1
#32832000
0'
1%
b00000000000000000000000000000001 ,
0"
#33120000
1"
#33120254
05
#33120340
13
#33120584
bxxxxxxxxxxxxxxxxxxxxxxxxxxxxxxx1 d&
#33120597
b00000000000000000000000000000001 d&
#33264000
b0000000000111010 1
#33408000
0"
b00000000000000000000000000011000 *
b00000000000000000000000000000001 )
b01111 .
b01111 0
b00000000000000000000000000011000 (
b00000000000000000000000000011000 -
0%
bxxxxxxxxxxxxxxxxxxxxxxxxxxxxxxxx ,
#33696000
1"
#33696210
bxxxxxxxxxxxxxxxxxxxxxxxxxxxxxxx1 a&
b01111 h&
b00000000000000000000000000011111 e&
#33696226
b000000x00xxxxxxxxxxxxxxxxxxxxxx1 a&
#33696227
b000000x00x0000000000000000000001 a&
b00000000000000000000000000011000 e&
#33696274
b00000000000000000000000000001001 b&
#33696294
b00000000000000000000000000011111 `&
#33696295
03
b00000000000000000000000000011001 b&
#33696299
b01111 f&
#33696312
b00000000000000000000000000011000 `&
#33696316
b00000000000000000000000000011000 b&
#33696478
b00000000000000000000000000000001 a&
#33696726
b0000xx000000000000000000000000x1 d&
#33696766
b0000xx000000000000000000000000xx d&
#33696775
bx000xx000000000000000000000000xx d&
#33696779
bxxxxxxxxxxxxxxxxxxxxxxxxxxxxxxxx d&
#33840000
b0000000000111011 1
#33984000
0"
b00000000000000011000000100000000 $
b00000000000000000000000000011001 *
bxxxxxxxxxxxxxxxxxxxxxxxxxxxxxxxx )
#34272000
1"
#34272209
bxxxxxx0xx00000000000000000000001 a&
#34272210
bxxxxxx0xx0xxxxxxxxxxxxxxxxxxxxx1 a&
#34272227
bxxxxxx0xx0xxxxxxxxxxxxxxxxxxxxxx a&
#34272276
b00000000000000000000000000011001 b&
#34272447
bxxxxxxxxxxxxxxxxxxxxxxxxxxxxxxxx a&
#34416000
b0000000000111100 1
#34560000
0"
1'
b00000000000000000000000000000000 *
#34848000
1"
#34848241
15
#34848293
b00000000000000000000000000010000 b&
#34848317
b00000000000000000000000000000000 b&
#34992000
b0000000000111101 1
#35136000
0"
1%
b00000000000000000000000000000000 ,
0'
#35424000
1"
#35424254
05
#35424340
13
#35424616
b000000000000000000000000000x000x d&
#35424617
b0000000000000000000000000000000x d&
#35424642
b00000000000000000000000000000000 d&
#35568000
b0000000000111110 1
#35712000
b00000000000000000000000000000011 ,
0%
b00000000000000000000000000011001 *
b00000000000000000000000000000000 )
b00000000000000000000000000011001 -
b00000000000000000000000000011001 (
b00001 0
b00001 .
b00000000000000000000000000000000 +
b00000 /
0"
#36000000
1"
#36000210
b00000000000000000000000000011001 e&
